\relax 
\citation{PSF_fitting}
\@writefile{toc}{\contentsline {section}{\numberline {1}Sample preparation}{2}}
\@writefile{toc}{\contentsline {section}{\numberline {2}Size of the confocal volume}{2}}
\newlabel{eq:confocal_volume}{{1}{2}}
\@writefile{toc}{\contentsline {section}{\numberline {3}Saturation of IRDye800CW}{2}}
\@writefile{toc}{\contentsline {section}{\numberline {4}Supplementary data}{2}}
\@writefile{toc}{\contentsline {section}{\numberline {5}Numerical simulations}{2}}
\@writefile{lof}{\contentsline {figure}{\numberline {1}{\ignorespaces \textbf  {\textit  {xz} section of the scattering PSF measured with a gold nanorod}. Line profiles through the center are shown. The red (along the \textit  {x} axis) and green (along the \textit  {z} axis) dots show the experimental data and the black lines represent two-dimensional Gaussian fits, which yield $w_x = 237.0 \pm 1.4$ nm and $w_z = 731.1 \pm 4.4$ nm. }}{3}}
\newlabel{fg:PSF}{{1}{3}}
\@writefile{lof}{\contentsline {figure}{\numberline {2}{\ignorespaces \textbf  {Spectra of gold nanorods}. The black line shows the bulk extinction spectrum of gold nanorods used in this work dispersed in water. The extinction maximum was observed at 771 nm. The broad extinction band stems from the size distribution of nanorods in the suspension. The cyan curve shows the one-photon-excited photoluminescence spectrum of a single gold nanorod. The spectrum is corrected for the wavelength-dependence collecting efficiency of the setup and fitted with a Lorentzian line shape (magenta), yielding a resonance wavelength of 768.2 $\pm $ 0.3 nm. The wavelength of the excitation laser (775 nm) is represented by the dashed vertical lines in the plots. }}{4}}
\newlabel{fg:spectrum_NR}{{2}{4}}
\@writefile{lof}{\contentsline {figure}{\numberline {3}{\ignorespaces \textbf  {Spectra of Rhodamine 6G}. Absorption and emission spectra of a solution of Rhodamine 6G in methanol are shown as the blue solid line and red dashed line, respectively ($ \lambda _\mathrm  {max-abs} \sim $ 528 nm, $ \lambda _\mathrm  {max-em} \sim $ 552 nm). The blue vertical arrow indicates the wavelength corresponding to the total energy of two excitation photons. Inset: chemical structure of Rhodamine 6G. }}{5}}
\newlabel{fg:spectrum_R6G}{{3}{5}}
\@writefile{lof}{\contentsline {figure}{\numberline {4}{\ignorespaces \textbf  {Spectra of Coumarin 102}. Absorption and emission spectra of a solution of Coumarin 102 in methanol are shown as the blue solid line and red dashed line, respectively ($ \lambda _\mathrm  {max-abs} \sim $ 392 nm, $ \lambda _\mathrm  {max-em} \sim $ 472 nm). The blue vertical arrow indicates the wavelength corresponding to the total energy of two excitation photons. Inset: chemical structure of Coumarin 102. }}{5}}
\newlabel{fg:spectrum_C102}{{4}{5}}
\bibstyle{ieeetr}
\bibdata{sup_info}
\bibcite{Lakowicz}{1}
\bibcite{PSF_fitting}{2}
\@writefile{lof}{\contentsline {figure}{\numberline {5}{\ignorespaces \textbf  {Fluorescence images of gold nanorods in clean methanol (left) and Rhodamine 6G (right)}. The spots in the left image come from the multi-photon-excited luminescence gold nanorods. After methanol was replaced by 5.34 mM Rhodamine 6G, the same nanorods shown in the left image were identified. The excitation was the Ti:Sapphire laser (circularly polarized) with an average power of 1.5 $\mu $W at the sample. A 612-nm short-pass filter was used for the images. Intensity enhancement is already visible by comparing of the brightness of the spots for the same nanorods in different images, but to measure the enhancement with more accuracy, we have to record time traces both on and outside nanorods. }}{6}}
\newlabel{fg:image_compare}{{5}{6}}
\@writefile{lof}{\contentsline {figure}{\numberline {6}{\ignorespaces Power dependent measurements of the enhancement factors for four more nanorods. }}{7}}
\newlabel{fg:power_more_examples}{{6}{7}}
