\contentsline {section}{\numberline {1}Sample preparation}{2}
\contentsline {section}{\numberline {2}Size of the confocal volume}{2}
\contentsline {section}{\numberline {3}Saturation of IRDye800CW}{2}
\contentsline {section}{\numberline {4}Supplementary data}{2}
\contentsline {section}{\numberline {5}Numerical simulations}{2}
