<?xml version="1.0" encoding="UTF-8" standalone="no"?>
<svg
   xmlns:dc="http://purl.org/dc/elements/1.1/"
   xmlns:cc="http://creativecommons.org/ns#"
   xmlns:rdf="http://www.w3.org/1999/02/22-rdf-syntax-ns#"
   xmlns:svg="http://www.w3.org/2000/svg"
   xmlns="http://www.w3.org/2000/svg"
   xmlns:sodipodi="http://sodipodi.sourceforge.net/DTD/sodipodi-0.dtd"
   xmlns:inkscape="http://www.inkscape.org/namespaces/inkscape"
   style="fill-opacity:1; color-rendering:auto; color-interpolation:auto; stroke:black; text-rendering:auto; stroke-linecap:square; stroke-miterlimit:10; stroke-opacity:1; shape-rendering:auto; fill:black; stroke-dasharray:none; font-weight:normal; stroke-width:1; font-family:'Dialog'; font-style:normal; stroke-linejoin:miter; font-size:12px; stroke-dashoffset:0; image-rendering:auto;"
   width="560"
   height="420"
   id="svg10393"
   version="1.1"
   inkscape:version="0.91 r13725"
   sodipodi:docname="C102_spectra_structure.svg">
  <metadata
     id="metadata10631">
    <rdf:RDF>
      <cc:Work
         rdf:about="">
        <dc:format>image/svg+xml</dc:format>
        <dc:type
           rdf:resource="http://purl.org/dc/dcmitype/StillImage" />
        <dc:title></dc:title>
      </cc:Work>
    </rdf:RDF>
  </metadata>
  <sodipodi:namedview
     pagecolor="#ffffff"
     bordercolor="#666666"
     borderopacity="1"
     objecttolerance="10"
     gridtolerance="10"
     guidetolerance="10"
     inkscape:pageopacity="0"
     inkscape:pageshadow="2"
     inkscape:window-width="1680"
     inkscape:window-height="988"
     id="namedview10629"
     showgrid="false"
     inkscape:zoom="0.79465333"
     inkscape:cx="24.916387"
     inkscape:cy="195.32185"
     inkscape:window-x="-8"
     inkscape:window-y="-8"
     inkscape:window-maximized="1"
     inkscape:current-layer="drawing" />
  <!--Generated by the Batik Graphics2D SVG Generator-->
  <defs
     id="genericDefs" />
  <g
     id="g10396">
    <defs
       id="defs1">
      <clipPath
         clipPathUnits="userSpaceOnUse"
         id="clipPath1">
        <path
           d="M0 0 L560 0 L560 420 L0 420 L0 0 Z"
           id="path10400" />
      </clipPath>
      <font
         horiz-adv-x="75.0"
         id="font1">
        <font-face
           ascent="100.53711"
           descent="21.972656"
           units-per-em="100"
           style="font-style:normal; font-family:sans-serif; font-weight:normal;"
           id="font-face10403" />
        <missing-glyph
           horiz-adv-x="75.0"
           d="M12.5 0 L12.5 62.5 L62.5 62.5 L62.5 0 L12.5 0 ZM14.0625 1.5625 L60.9375 1.5625 L60.9375 60.9375 L14.0625 60.9375 L14.0625 1.5625 Z"
           id="missing-glyph10405" />
        <glyph
           unicode="0"
           horiz-adv-x="55.615234"
           d="M4.1562 35.2969 Q4.1562 48 6.7656 55.7422 Q9.375 63.4844 14.5234 67.6797 Q19.6719 71.875 27.4844 71.875 Q33.25 71.875 37.5938 69.5547 Q41.9375 67.2344 44.7734 62.8672 Q47.6094 58.5 49.2188 52.2266 Q50.8281 45.9531 50.8281 35.2969 Q50.8281 22.7031 48.2422 14.9688 Q45.6562 7.2344 40.5078 3.0078 Q35.3594 -1.2188 27.4844 -1.2188 Q17.1406 -1.2188 11.2344 6.2031 Q4.1562 15.1406 4.1562 35.2969 ZM13.1875 35.2969 Q13.1875 17.6719 17.3125 11.8359 Q21.4375 6 27.4844 6 Q33.5469 6 37.6719 11.8594 Q41.7969 17.7188 41.7969 35.2969 Q41.7969 52.9844 37.6719 58.7891 Q33.5469 64.5938 27.3906 64.5938 Q21.3438 64.5938 17.7188 59.4688 Q13.1875 52.9375 13.1875 35.2969 Z"
           id="glyph10407" />
        <glyph
           unicode="2"
           horiz-adv-x="55.615234"
           d="M50.3438 8.4531 L50.3438 0 L3.0312 0 Q2.9375 3.1719 4.0469 6.1094 Q5.8594 10.9375 9.8359 15.625 Q13.8125 20.3125 21.3438 26.4688 Q33.0156 36.0312 37.1172 41.625 Q41.2188 47.2188 41.2188 52.2031 Q41.2188 57.4219 37.4766 61.0078 Q33.7344 64.5938 27.7344 64.5938 Q21.3906 64.5938 17.5781 60.7891 Q13.7656 56.9844 13.7188 50.25 L4.6875 51.1719 Q5.6094 61.2812 11.6641 66.5781 Q17.7188 71.875 27.9375 71.875 Q38.2344 71.875 44.2422 66.1641 Q50.25 60.4531 50.25 52 Q50.25 47.7031 48.4922 43.5547 Q46.7344 39.4062 42.6562 34.8125 Q38.5781 30.2188 29.1094 22.2188 Q21.1875 15.5781 18.9453 13.2109 Q16.7031 10.8438 15.2344 8.4531 L50.3438 8.4531 Z"
           id="glyph10409" />
        <glyph
           unicode="3"
           horiz-adv-x="55.615234"
           d="M4.2031 18.8906 L12.9844 20.0625 Q14.5 12.5938 18.1406 9.2969 Q21.7812 6 27 6 Q33.2031 6 37.4766 10.2969 Q41.75 14.5938 41.75 20.9531 Q41.75 27 37.7969 30.9297 Q33.8438 34.8594 27.7344 34.8594 Q25.25 34.8594 21.5312 33.8906 L22.5156 41.6094 Q23.3906 41.5 23.9219 41.5 Q29.5469 41.5 34.0391 44.4297 Q38.5312 47.3594 38.5312 53.4688 Q38.5312 58.2969 35.2578 61.4766 Q31.9844 64.6562 26.8125 64.6562 Q21.6875 64.6562 18.2656 61.4297 Q14.8438 58.2031 13.875 51.7656 L5.0781 53.3281 Q6.6875 62.1562 12.3984 67.0156 Q18.1094 71.875 26.6094 71.875 Q32.4688 71.875 37.3984 69.3594 Q42.3281 66.8438 44.9453 62.5 Q47.5625 58.1562 47.5625 53.2656 Q47.5625 48.6406 45.0703 44.8281 Q42.5781 41.0156 37.7031 38.7656 Q44.0469 37.3125 47.5625 32.6953 Q51.0781 28.0781 51.0781 21.1406 Q51.0781 11.7656 44.2422 5.25 Q37.4062 -1.2656 26.9531 -1.2656 Q17.5312 -1.2656 11.3047 4.3516 Q5.0781 9.9688 4.2031 18.8906 Z"
           id="glyph10411" />
        <glyph
           unicode="4"
           horiz-adv-x="55.615234"
           d="M32.3281 0 L32.3281 17.1406 L1.2656 17.1406 L1.2656 25.2031 L33.9375 71.5781 L41.1094 71.5781 L41.1094 25.2031 L50.7812 25.2031 L50.7812 17.1406 L41.1094 17.1406 L41.1094 0 L32.3281 0 ZM32.3281 25.2031 L32.3281 57.4688 L9.9062 25.2031 L32.3281 25.2031 Z"
           id="glyph10413" />
        <glyph
           unicode="5"
           horiz-adv-x="55.615234"
           d="M4.1562 18.75 L13.375 19.5312 Q14.4062 12.7969 18.1406 9.3984 Q21.875 6 27.1562 6 Q33.5 6 37.8906 10.7891 Q42.2812 15.5781 42.2812 23.4844 Q42.2812 31 38.0625 35.3516 Q33.8438 39.7031 27 39.7031 Q22.75 39.7031 19.3359 37.7734 Q15.9219 35.8438 13.9688 32.7656 L5.7188 33.8438 L12.6406 70.6094 L48.25 70.6094 L48.25 62.2031 L19.6719 62.2031 L15.8281 42.9688 Q22.2656 47.4688 29.3438 47.4688 Q38.7188 47.4688 45.1641 40.9688 Q51.6094 34.4688 51.6094 24.2656 Q51.6094 14.5469 45.9531 7.4688 Q39.0625 -1.2188 27.1562 -1.2188 Q17.3906 -1.2188 11.2109 4.25 Q5.0312 9.7188 4.1562 18.75 Z"
           id="glyph10415" />
        <glyph
           unicode="6"
           horiz-adv-x="55.615234"
           d="M49.75 54.0469 L41.0156 53.375 Q39.8438 58.5469 37.7031 60.8906 Q34.125 64.6562 28.9062 64.6562 Q24.7031 64.6562 21.5312 62.3125 Q17.3906 59.2812 14.9922 53.4688 Q12.5938 47.6562 12.5 36.9219 Q15.6719 41.75 20.2656 44.0938 Q24.8594 46.4375 29.8906 46.4375 Q38.6719 46.4375 44.8516 39.9688 Q51.0312 33.5 51.0312 23.25 Q51.0312 16.5 48.125 10.7188 Q45.2188 4.9375 40.1406 1.8594 Q35.0625 -1.2188 28.6094 -1.2188 Q17.625 -1.2188 10.6953 6.8594 Q3.7656 14.9375 3.7656 33.5 Q3.7656 54.25 11.4219 63.6719 Q18.1094 71.875 29.4375 71.875 Q37.8906 71.875 43.2891 67.1406 Q48.6875 62.4062 49.75 54.0469 ZM13.875 23.1875 Q13.875 18.6562 15.7969 14.5078 Q17.7188 10.3594 21.1875 8.1797 Q24.6562 6 28.4688 6 Q34.0312 6 38.0391 10.4922 Q42.0469 14.9844 42.0469 22.7031 Q42.0469 30.125 38.0859 34.3984 Q34.125 38.6719 28.125 38.6719 Q22.1719 38.6719 18.0234 34.3984 Q13.875 30.125 13.875 23.1875 Z"
           id="glyph10417" />
        <glyph
           unicode="7"
           horiz-adv-x="55.615234"
           d="M4.7344 62.2031 L4.7344 70.6562 L51.0781 70.6562 L51.0781 63.8125 Q44.2344 56.5469 37.5234 44.4844 Q30.8125 32.4219 27.1562 19.6719 Q24.5156 10.6875 23.7812 0 L14.75 0 Q14.8906 8.4531 18.0625 20.4141 Q21.2344 32.375 27.1719 43.4844 Q33.1094 54.5938 39.7969 62.2031 L4.7344 62.2031 Z"
           id="glyph10419" />
        <glyph
           unicode="8"
           horiz-adv-x="55.615234"
           d="M17.6719 38.8125 Q12.2031 40.8281 9.5703 44.5391 Q6.9375 48.25 6.9375 53.4219 Q6.9375 61.2344 12.5547 66.5547 Q18.1719 71.875 27.4844 71.875 Q36.8594 71.875 42.5781 66.4297 Q48.2969 60.9844 48.2969 53.1719 Q48.2969 48.1875 45.6797 44.5078 Q43.0625 40.8281 37.75 38.8125 Q44.3438 36.6719 47.7812 31.8828 Q51.2188 27.0938 51.2188 20.4531 Q51.2188 11.2812 44.7266 5.0312 Q38.2344 -1.2188 27.6406 -1.2188 Q17.0469 -1.2188 10.5469 5.0547 Q4.0469 11.3281 4.0469 20.7031 Q4.0469 27.6875 7.5938 32.3984 Q11.1406 37.1094 17.6719 38.8125 ZM15.9219 53.7188 Q15.9219 48.6406 19.1953 45.4141 Q22.4688 42.1875 27.6875 42.1875 Q32.7656 42.1875 36.0156 45.3828 Q39.2656 48.5781 39.2656 53.2188 Q39.2656 58.0625 35.9141 61.3594 Q32.5625 64.6562 27.5938 64.6562 Q22.5625 64.6562 19.2422 61.4297 Q15.9219 58.2031 15.9219 53.7188 ZM13.0938 20.6562 Q13.0938 16.8906 14.875 13.375 Q16.6562 9.8594 20.1719 7.9297 Q23.6875 6 27.7344 6 Q34.0312 6 38.1328 10.0547 Q42.2344 14.1094 42.2344 20.3594 Q42.2344 26.7031 38.0156 30.8594 Q33.7969 35.0156 27.4375 35.0156 Q21.2344 35.0156 17.1641 30.9141 Q13.0938 26.8125 13.0938 20.6562 Z"
           id="glyph10421" />
        <glyph
           unicode=")"
           horiz-adv-x="33.30078"
           d="M12.3594 -21.0469 L6.0625 -21.0469 Q20.6562 2.3906 20.6562 25.875 Q20.6562 35.0625 18.5625 44.0938 Q16.8906 51.4219 13.9219 58.1562 Q12.0156 62.5469 6.0625 72.7969 L12.3594 72.7969 Q21.5312 60.5469 25.9219 48.1875 Q29.6875 37.5469 29.6875 25.9219 Q29.6875 12.75 24.6328 0.4453 Q19.5781 -11.8594 12.3594 -21.0469 Z"
           id="glyph10423" />
        <glyph
           unicode="m"
           horiz-adv-x="83.30078"
           d="M6.5938 0 L6.5938 51.8594 L14.4531 51.8594 L14.4531 44.5781 Q16.8906 48.3906 20.9453 50.7109 Q25 53.0312 30.1719 53.0312 Q35.9375 53.0312 39.625 50.6406 Q43.3125 48.25 44.8281 43.9531 Q50.9844 53.0312 60.8438 53.0312 Q68.5625 53.0312 72.7109 48.7578 Q76.8594 44.4844 76.8594 35.5938 L76.8594 0 L68.1094 0 L68.1094 32.6719 Q68.1094 37.9375 67.2578 40.2578 Q66.4062 42.5781 64.1641 43.9922 Q61.9219 45.4062 58.8906 45.4062 Q53.4219 45.4062 49.8047 41.7734 Q46.1875 38.1406 46.1875 30.125 L46.1875 0 L37.4062 0 L37.4062 33.6875 Q37.4062 39.5469 35.2578 42.4766 Q33.1094 45.4062 28.2188 45.4062 Q24.5156 45.4062 21.3672 43.4531 Q18.2188 41.5 16.7969 37.7422 Q15.375 33.9844 15.375 26.9062 L15.375 0 L6.5938 0 Z"
           id="glyph10425" />
        <glyph
           unicode="("
           horiz-adv-x="33.30078"
           d="M23.3906 -21.0469 Q16.1094 -11.8594 11.0859 0.4453 Q6.0625 12.75 6.0625 25.9219 Q6.0625 37.5469 9.8125 48.1875 Q14.2031 60.5469 23.3906 72.7969 L29.6875 72.7969 Q23.7812 62.6406 21.875 58.2969 Q18.8906 51.5625 17.1875 44.2344 Q15.0938 35.1094 15.0938 25.875 Q15.0938 2.3906 29.6875 -21.0469 L23.3906 -21.0469 Z"
           id="glyph10427" />
        <glyph
           unicode=" "
           horiz-adv-x="27.783203"
           d=""
           id="glyph10429" />
        <glyph
           unicode="h"
           horiz-adv-x="55.615234"
           d="M6.5938 0 L6.5938 71.5781 L15.375 71.5781 L15.375 45.9062 Q21.5312 53.0312 30.9062 53.0312 Q36.6719 53.0312 40.9219 50.7578 Q45.1719 48.4844 47 44.4844 Q48.8281 40.4844 48.8281 32.8594 L48.8281 0 L40.0469 0 L40.0469 32.8594 Q40.0469 39.4531 37.1875 42.4531 Q34.3281 45.4531 29.1094 45.4531 Q25.2031 45.4531 21.7578 43.4297 Q18.3125 41.4062 16.8438 37.9375 Q15.375 34.4688 15.375 28.375 L15.375 0 L6.5938 0 Z"
           id="glyph10431" />
        <glyph
           unicode="t"
           horiz-adv-x="27.783203"
           d="M25.7812 7.8594 L27.0469 0.0938 Q23.3438 -0.6875 20.4062 -0.6875 Q15.625 -0.6875 12.9922 0.8281 Q10.3594 2.3438 9.2812 4.8125 Q8.2031 7.2812 8.2031 15.1875 L8.2031 45.0156 L1.7656 45.0156 L1.7656 51.8594 L8.2031 51.8594 L8.2031 64.7031 L16.9375 69.9688 L16.9375 51.8594 L25.7812 51.8594 L25.7812 45.0156 L16.9375 45.0156 L16.9375 14.7031 Q16.9375 10.9375 17.4062 9.8672 Q17.875 8.7969 18.9219 8.1562 Q19.9688 7.5156 21.9219 7.5156 Q23.3906 7.5156 25.7812 7.8594 Z"
           id="glyph10433" />
        <glyph
           unicode="g"
           horiz-adv-x="55.615234"
           d="M4.9844 -4.2969 L13.5312 -5.5625 Q14.0625 -9.5156 16.5 -11.3281 Q19.7812 -13.7656 25.4375 -13.7656 Q31.5469 -13.7656 34.8672 -11.3281 Q38.1875 -8.8906 39.3594 -4.5 Q40.0469 -1.8125 39.9844 6.7812 Q34.2344 0 25.6406 0 Q14.9375 0 9.0781 7.7188 Q3.2188 15.4375 3.2188 26.2188 Q3.2188 33.6406 5.9062 39.9141 Q8.5938 46.1875 13.6953 49.6094 Q18.7969 53.0312 25.6875 53.0312 Q34.8594 53.0312 40.8281 45.6094 L40.8281 51.8594 L48.9219 51.8594 L48.9219 7.0312 Q48.9219 -5.0781 46.4609 -10.1328 Q44 -15.1875 38.6484 -18.1172 Q33.2969 -21.0469 25.4844 -21.0469 Q16.2188 -21.0469 10.5 -16.875 Q4.7812 -12.7031 4.9844 -4.2969 ZM12.25 26.8594 Q12.25 16.6562 16.3047 11.9688 Q20.3594 7.2812 26.4688 7.2812 Q32.5156 7.2812 36.6172 11.9453 Q40.7188 16.6094 40.7188 26.5625 Q40.7188 36.0781 36.5 40.9141 Q32.2812 45.75 26.3125 45.75 Q20.4531 45.75 16.3516 40.9922 Q12.25 36.2344 12.25 26.8594 Z"
           id="glyph10435" />
        <glyph
           unicode="n"
           horiz-adv-x="55.615234"
           d="M6.5938 0 L6.5938 51.8594 L14.5 51.8594 L14.5 44.4844 Q20.2188 53.0312 31 53.0312 Q35.6875 53.0312 39.625 51.3438 Q43.5625 49.6562 45.5156 46.9219 Q47.4688 44.1875 48.25 40.4375 Q48.7344 37.9844 48.7344 31.8906 L48.7344 0 L39.9375 0 L39.9375 31.5469 Q39.9375 36.9219 38.9141 39.5781 Q37.8906 42.2344 35.2812 43.8203 Q32.6719 45.4062 29.1562 45.4062 Q23.5312 45.4062 19.4531 41.8438 Q15.375 38.2812 15.375 28.3281 L15.375 0 L6.5938 0 Z"
           id="glyph10437" />
        <glyph
           unicode="l"
           horiz-adv-x="22.216797"
           d="M6.3906 0 L6.3906 71.5781 L15.1875 71.5781 L15.1875 0 L6.3906 0 Z"
           id="glyph10439" />
        <glyph
           unicode="e"
           horiz-adv-x="55.615234"
           d="M42.0938 16.7031 L51.1719 15.5781 Q49.0312 7.625 43.2188 3.2266 Q37.4062 -1.1719 28.375 -1.1719 Q17 -1.1719 10.3281 5.8359 Q3.6562 12.8438 3.6562 25.4844 Q3.6562 38.5781 10.3984 45.8047 Q17.1406 53.0312 27.875 53.0312 Q38.2812 53.0312 44.875 45.9531 Q51.4688 38.875 51.4688 26.0312 Q51.4688 25.25 51.4219 23.6875 L12.75 23.6875 Q13.2344 15.1406 17.5781 10.6016 Q21.9219 6.0625 28.4219 6.0625 Q33.25 6.0625 36.6719 8.6016 Q40.0938 11.1406 42.0938 16.7031 ZM13.2344 30.9062 L42.1875 30.9062 Q41.6094 37.4531 38.875 40.7188 Q34.6719 45.7969 27.9844 45.7969 Q21.9219 45.7969 17.7969 41.75 Q13.6719 37.7031 13.2344 30.9062 Z"
           id="glyph10441" />
        <glyph
           unicode="v"
           horiz-adv-x="50.0"
           d="M21 0 L1.2656 51.8594 L10.5469 51.8594 L21.6875 20.7969 Q23.4844 15.7656 25 10.3594 Q26.1719 14.4531 28.2656 20.2188 L39.7969 51.8594 L48.8281 51.8594 L29.2031 0 L21 0 Z"
           id="glyph10443" />
        <glyph
           unicode="a"
           horiz-adv-x="55.615234"
           d="M40.4375 6.3906 Q35.5469 2.25 31.0312 0.5391 Q26.5156 -1.1719 21.3438 -1.1719 Q12.7969 -1.1719 8.2031 3 Q3.6094 7.1719 3.6094 13.6719 Q3.6094 17.4844 5.3438 20.6328 Q7.0781 23.7812 9.8906 25.6875 Q12.7031 27.5938 16.2188 28.5625 Q18.7969 29.25 24.0312 29.8906 Q34.6719 31.1562 39.7031 32.9062 Q39.75 34.7188 39.75 35.2031 Q39.75 40.5781 37.25 42.7812 Q33.8906 45.75 27.25 45.75 Q21.0469 45.75 18.0938 43.5781 Q15.1406 41.4062 13.7188 35.8906 L5.125 37.0625 Q6.2969 42.5781 8.9844 45.9688 Q11.6719 49.3594 16.75 51.1953 Q21.8281 53.0312 28.5156 53.0312 Q35.1562 53.0312 39.3047 51.4688 Q43.4531 49.9062 45.4062 47.5391 Q47.3594 45.1719 48.1406 41.5469 Q48.5781 39.3125 48.5781 33.4531 L48.5781 21.7344 Q48.5781 9.4688 49.1406 6.2266 Q49.7031 2.9844 51.375 0 L42.1875 0 Q40.8281 2.7344 40.4375 6.3906 ZM39.7031 26.0312 Q34.9062 24.0781 25.3438 22.7031 Q19.9219 21.9219 17.6797 20.9453 Q15.4375 19.9688 14.2109 18.0938 Q12.9844 16.2188 12.9844 13.9219 Q12.9844 10.4062 15.6484 8.0625 Q18.3125 5.7188 23.4375 5.7188 Q28.5156 5.7188 32.4688 7.9375 Q36.4219 10.1562 38.2812 14.0156 Q39.7031 17 39.7031 22.7969 L39.7031 26.0312 Z"
           id="glyph10445" />
        <glyph
           unicode="W"
           horiz-adv-x="94.384766"
           d="M20.2188 0 L1.2188 71.5781 L10.9375 71.5781 L21.8281 24.6562 Q23.5781 17.2812 24.8594 10.0156 Q27.5938 21.4844 28.0781 23.25 L41.7031 71.5781 L53.125 71.5781 L63.375 35.3594 Q67.2344 21.875 68.9531 10.0156 Q70.3125 16.7969 72.5156 25.5938 L83.7344 71.5781 L93.2656 71.5781 L73.6406 0 L64.5 0 L49.4219 54.5469 Q47.5156 61.375 47.1719 62.9375 Q46.0469 58.0156 45.0625 54.5469 L29.8906 0 L20.2188 0 Z"
           id="glyph10447" />
        <glyph
           unicode="."
           horiz-adv-x="27.783203"
           d="M9.0781 0 L9.0781 10.0156 L19.0938 10.0156 L19.0938 0 L9.0781 0 Z"
           id="glyph10449" />
        <glyph
           unicode="1"
           horiz-adv-x="55.615234"
           d="M37.25 0 L28.4688 0 L28.4688 56 Q25.2969 52.9844 20.1406 49.9531 Q14.9844 46.9219 10.8906 45.4062 L10.8906 53.9062 Q18.2656 57.375 23.7812 62.3047 Q29.2969 67.2344 31.5938 71.875 L37.25 71.875 L37.25 0 Z"
           id="glyph10451" />
        <glyph
           unicode="y"
           horiz-adv-x="50.0"
           d="M6.2031 -19.9688 L5.2188 -11.7188 Q8.1094 -12.5 10.25 -12.5 Q13.1875 -12.5 14.9453 -11.5234 Q16.7031 -10.5469 17.8281 -8.7969 Q18.6562 -7.4688 20.5156 -2.25 Q20.75 -1.5156 21.2969 -0.0938 L1.6094 51.8594 L11.0781 51.8594 L21.875 21.8281 Q23.9688 16.1094 25.6406 9.8125 Q27.1562 15.875 29.25 21.625 L40.3281 51.8594 L49.125 51.8594 L29.3906 -0.875 Q26.2188 -9.4219 24.4688 -12.6406 Q22.125 -17 19.0938 -19.0234 Q16.0625 -21.0469 11.8594 -21.0469 Q9.3281 -21.0469 6.2031 -19.9688 Z"
           id="glyph10453" />
        <glyph
           unicode="s"
           horiz-adv-x="50.0"
           d="M3.0781 15.4844 L11.7656 16.8438 Q12.5 11.625 15.8438 8.8438 Q19.1875 6.0625 25.2031 6.0625 Q31.25 6.0625 34.1797 8.5234 Q37.1094 10.9844 37.1094 14.3125 Q37.1094 17.2812 34.5156 19 Q32.7188 20.1719 25.5312 21.9688 Q15.875 24.4219 12.1406 26.2031 Q8.4062 27.9844 6.4766 31.1328 Q4.5469 34.2812 4.5469 38.0938 Q4.5469 41.5469 6.1328 44.5078 Q7.7188 47.4688 10.4531 49.4219 Q12.5 50.9219 16.0391 51.9766 Q19.5781 53.0312 23.6406 53.0312 Q29.7344 53.0312 34.3516 51.2734 Q38.9688 49.5156 41.1641 46.5078 Q43.3594 43.5 44.1875 38.4844 L35.5938 37.3125 Q35.0156 41.3125 32.2031 43.5547 Q29.3906 45.7969 24.2656 45.7969 Q18.2188 45.7969 15.625 43.7969 Q13.0312 41.7969 13.0312 39.1094 Q13.0312 37.4062 14.1094 36.0312 Q15.1875 34.625 17.4844 33.6875 Q18.7969 33.2031 25.25 31.4531 Q34.5781 28.9531 38.2578 27.3672 Q41.9375 25.7812 44.0391 22.7578 Q46.1406 19.7344 46.1406 15.2344 Q46.1406 10.8438 43.5781 6.9609 Q41.0156 3.0781 36.1797 0.9531 Q31.3438 -1.1719 25.25 -1.1719 Q15.1406 -1.1719 9.8438 3.0312 Q4.5469 7.2344 3.0781 15.4844 Z"
           id="glyph10455" />
        <glyph
           unicode="d"
           horiz-adv-x="55.615234"
           d="M40.2344 0 L40.2344 6.5469 Q35.2969 -1.1719 25.7344 -1.1719 Q19.5312 -1.1719 14.3281 2.25 Q9.125 5.6719 6.2734 11.7969 Q3.4219 17.9219 3.4219 25.875 Q3.4219 33.6406 6.0078 39.9688 Q8.5938 46.2969 13.7734 49.6641 Q18.9531 53.0312 25.3438 53.0312 Q30.0312 53.0312 33.6953 51.0547 Q37.3594 49.0781 39.6562 45.9062 L39.6562 71.5781 L48.3906 71.5781 L48.3906 0 L40.2344 0 ZM12.4531 25.875 Q12.4531 15.9219 16.6484 10.9922 Q20.8438 6.0625 26.5625 6.0625 Q32.3281 6.0625 36.3516 10.7734 Q40.375 15.4844 40.375 25.1406 Q40.375 35.7969 36.2734 40.7734 Q32.1719 45.75 26.1719 45.75 Q20.3125 45.75 16.3828 40.9688 Q12.4531 36.1875 12.4531 25.875 Z"
           id="glyph10457" />
        <glyph
           unicode="z"
           horiz-adv-x="50.0"
           d="M1.9531 0 L1.9531 7.125 L34.9688 45.0156 Q29.3438 44.7344 25.0469 44.7344 L3.9062 44.7344 L3.9062 51.8594 L46.2969 51.8594 L46.2969 46.0469 L18.2188 13.1406 L12.7969 7.125 Q18.7031 7.5625 23.875 7.5625 L47.8594 7.5625 L47.8594 0 L1.9531 0 Z"
           id="glyph10459" />
        <glyph
           unicode="i"
           horiz-adv-x="22.216797"
           d="M6.6406 61.4688 L6.6406 71.5781 L15.4375 71.5781 L15.4375 61.4688 L6.6406 61.4688 ZM6.6406 0 L6.6406 51.8594 L15.4375 51.8594 L15.4375 0 L6.6406 0 Z"
           id="glyph10461" />
        <glyph
           unicode="r"
           horiz-adv-x="33.30078"
           d="M6.5 0 L6.5 51.8594 L14.4062 51.8594 L14.4062 44 Q17.4375 49.5156 20 51.2734 Q22.5625 53.0312 25.6406 53.0312 Q30.0781 53.0312 34.6719 50.2031 L31.6406 42.0469 Q28.4219 43.9531 25.2031 43.9531 Q22.3125 43.9531 20.0156 42.2188 Q17.7188 40.4844 16.75 37.4062 Q15.2812 32.7188 15.2812 27.1562 L15.2812 0 L6.5 0 Z"
           id="glyph10463" />
        <glyph
           unicode="o"
           horiz-adv-x="55.615234"
           d="M3.3281 25.9219 Q3.3281 40.3281 11.3281 47.2656 Q18.0156 53.0312 27.6406 53.0312 Q38.3281 53.0312 45.1172 46.0234 Q51.9062 39.0156 51.9062 26.6562 Q51.9062 16.6562 48.9062 10.9141 Q45.9062 5.1719 40.1641 2 Q34.4219 -1.1719 27.6406 -1.1719 Q16.75 -1.1719 10.0391 5.8125 Q3.3281 12.7969 3.3281 25.9219 ZM12.3594 25.9219 Q12.3594 15.9688 16.7031 11.0156 Q21.0469 6.0625 27.6406 6.0625 Q34.1875 6.0625 38.5312 11.0391 Q42.875 16.0156 42.875 26.2188 Q42.875 35.8438 38.5 40.7969 Q34.125 45.75 27.6406 45.75 Q21.0469 45.75 16.7031 40.8203 Q12.3594 35.8906 12.3594 25.9219 Z"
           id="glyph10465" />
        <glyph
           unicode="N"
           horiz-adv-x="72.2168"
           d="M7.625 0 L7.625 71.5781 L17.3281 71.5781 L54.9375 15.375 L54.9375 71.5781 L64.0156 71.5781 L64.0156 0 L54.2969 0 L16.7031 56.25 L16.7031 0 L7.625 0 Z"
           id="glyph10467" />
      </font>
    </defs>
    <g
       style="fill:white; stroke:white;"
       id="g10469">
      <rect
         x="0"
         y="0"
         width="560"
         style="clip-path:url(#clipPath1); stroke:none;"
         height="420"
         id="rect10471"
         clip-path="url(#clipPath1)" />
    </g>
    <g
       style="fill:white; text-rendering:optimizeSpeed; color-rendering:optimizeSpeed; image-rendering:optimizeSpeed; shape-rendering:crispEdges; color-interpolation:sRGB; stroke:white;"
       id="g10473">
      <rect
         x="0"
         width="560"
         height="420"
         y="0"
         style="stroke:none;"
         id="rect10475" />
      <path
         style="stroke:none;"
         d="M73 358 L507 358 L507 31 L73 31 Z"
         id="path10477" />
    </g>
    <g
       style="fill:rgb(38,38,38); text-rendering:geometricPrecision; color-rendering:optimizeQuality; image-rendering:optimizeQuality; stroke-linejoin:round; color-interpolation:linearRGB; stroke:rgb(38,38,38); stroke-width:2.6667;"
       id="g10479">
      <line
         y2="358"
         style="fill:none;"
         x1="73"
         x2="507"
         y1="358"
         id="line10481" />
      <line
         y2="31"
         style="fill:none;"
         x1="73"
         x2="507"
         y1="31"
         id="line10483" />
      <line
         y2="353.66"
         style="fill:none;"
         x1="73"
         x2="73"
         y1="358"
         id="line10485" />
      <line
         y2="353.66"
         style="fill:none;"
         x1="145.3333"
         x2="145.3333"
         y1="358"
         id="line10487" />
      <line
         y2="353.66"
         style="fill:none;"
         x1="217.6667"
         x2="217.6667"
         y1="358"
         id="line10489" />
      <line
         y2="353.66"
         style="fill:none;"
         x1="290"
         x2="290"
         y1="358"
         id="line10491" />
      <line
         y2="353.66"
         style="fill:none;"
         x1="362.3333"
         x2="362.3333"
         y1="358"
         id="line10493" />
      <line
         y2="353.66"
         style="fill:none;"
         x1="434.6667"
         x2="434.6667"
         y1="358"
         id="line10495" />
      <line
         y2="353.66"
         style="fill:none;"
         x1="507"
         x2="507"
         y1="358"
         id="line10497" />
      <line
         y2="35.34"
         style="fill:none;"
         x1="73"
         x2="73"
         y1="31"
         id="line10499" />
      <line
         y2="35.34"
         style="fill:none;"
         x1="145.3333"
         x2="145.3333"
         y1="31"
         id="line10501" />
      <line
         y2="35.34"
         style="fill:none;"
         x1="217.6667"
         x2="217.6667"
         y1="31"
         id="line10503" />
      <line
         y2="35.34"
         style="fill:none;"
         x1="290"
         x2="290"
         y1="31"
         id="line10505" />
      <line
         y2="35.34"
         style="fill:none;"
         x1="362.3333"
         x2="362.3333"
         y1="31"
         id="line10507" />
      <line
         y2="35.34"
         style="fill:none;"
         x1="434.6667"
         x2="434.6667"
         y1="31"
         id="line10509" />
      <line
         y2="35.34"
         style="fill:none;"
         x1="507"
         x2="507"
         y1="31"
         id="line10511" />
    </g>
    <g
       transform="translate(73,364.9333)"
       style="font-size:21px; fill:rgb(38,38,38); text-rendering:geometricPrecision; color-rendering:optimizeQuality; image-rendering:optimizeQuality; font-family:sans-serif; color-interpolation:linearRGB; stroke:rgb(38,38,38);"
       id="g10513">
      <text
         x="-18"
         xml:space="preserve"
         y="22"
         style="stroke:none;"
         id="text10515">200</text>
    </g>
    <g
       transform="translate(145.3333,364.9333)"
       style="font-size:21px; fill:rgb(38,38,38); text-rendering:geometricPrecision; color-rendering:optimizeQuality; image-rendering:optimizeQuality; font-family:sans-serif; color-interpolation:linearRGB; stroke:rgb(38,38,38);"
       id="g10517">
      <text
         x="-18"
         xml:space="preserve"
         y="22"
         style="stroke:none;"
         id="text10519">300</text>
    </g>
    <g
       transform="translate(217.6667,364.9333)"
       style="font-size:21px; fill:rgb(38,38,38); text-rendering:geometricPrecision; color-rendering:optimizeQuality; image-rendering:optimizeQuality; font-family:sans-serif; color-interpolation:linearRGB; stroke:rgb(38,38,38);"
       id="g10521">
      <text
         x="-18"
         xml:space="preserve"
         y="22"
         style="stroke:none;"
         id="text10523">400</text>
    </g>
    <g
       transform="translate(290,364.9333)"
       style="font-size:21px; fill:rgb(38,38,38); text-rendering:geometricPrecision; color-rendering:optimizeQuality; image-rendering:optimizeQuality; font-family:sans-serif; color-interpolation:linearRGB; stroke:rgb(38,38,38);"
       id="g10525">
      <text
         x="-18"
         xml:space="preserve"
         y="22"
         style="stroke:none;"
         id="text10527">500</text>
    </g>
    <g
       transform="translate(362.3333,364.9333)"
       style="font-size:21px; fill:rgb(38,38,38); text-rendering:geometricPrecision; color-rendering:optimizeQuality; image-rendering:optimizeQuality; font-family:sans-serif; color-interpolation:linearRGB; stroke:rgb(38,38,38);"
       id="g10529">
      <text
         x="-18"
         xml:space="preserve"
         y="22"
         style="stroke:none;"
         id="text10531">600</text>
    </g>
    <g
       transform="translate(434.6667,364.9333)"
       style="font-size:21px; fill:rgb(38,38,38); text-rendering:geometricPrecision; color-rendering:optimizeQuality; image-rendering:optimizeQuality; font-family:sans-serif; color-interpolation:linearRGB; stroke:rgb(38,38,38);"
       id="g10533">
      <text
         x="-18"
         xml:space="preserve"
         y="22"
         style="stroke:none;"
         id="text10535">700</text>
    </g>
    <g
       transform="translate(507,364.9333)"
       style="font-size:21px; fill:rgb(38,38,38); text-rendering:geometricPrecision; color-rendering:optimizeQuality; image-rendering:optimizeQuality; font-family:sans-serif; color-interpolation:linearRGB; stroke:rgb(38,38,38);"
       id="g10537">
      <text
         x="-18"
         xml:space="preserve"
         y="22"
         style="stroke:none;"
         id="text10539">800</text>
    </g>
    <g
       transform="translate(290.0002,393)"
       style="font-size:21px; fill:rgb(38,38,38); text-rendering:geometricPrecision; color-rendering:optimizeQuality; image-rendering:optimizeQuality; font-family:sans-serif; color-interpolation:linearRGB; stroke:rgb(38,38,38);"
       id="g10541">
      <text
         x="-80"
         xml:space="preserve"
         y="22"
         style="stroke:none;"
         id="text10543">Wavelength (nm)</text>
    </g>
    <g
       style="fill:rgb(38,38,38); text-rendering:geometricPrecision; color-rendering:optimizeQuality; image-rendering:optimizeQuality; stroke-linejoin:round; color-interpolation:linearRGB; stroke:rgb(38,38,38); stroke-width:2.6667;"
       id="g10545">
      <line
         y2="31"
         style="fill:none;"
         x1="73"
         x2="73"
         y1="358"
         id="line10547" />
      <line
         y2="31"
         style="fill:none;"
         x1="507"
         x2="507"
         y1="358"
         id="line10549" />
      <line
         y2="358"
         style="fill:none;"
         x1="73"
         x2="77.34"
         y1="358"
         id="line10551" />
      <line
         y2="295.7143"
         style="fill:none;"
         x1="73"
         x2="77.34"
         y1="295.7143"
         id="line10553" />
      <line
         y2="233.4286"
         style="fill:none;"
         x1="73"
         x2="77.34"
         y1="233.4286"
         id="line10555" />
      <line
         y2="171.1429"
         style="fill:none;"
         x1="73"
         x2="77.34"
         y1="171.1429"
         id="line10557" />
      <line
         y2="108.8571"
         style="fill:none;"
         x1="73"
         x2="77.34"
         y1="108.8571"
         id="line10559" />
      <line
         y2="46.5714"
         style="fill:none;"
         x1="73"
         x2="77.34"
         y1="46.5714"
         id="line10561" />
      <line
         y2="358"
         style="fill:none;"
         x1="507"
         x2="502.66"
         y1="358"
         id="line10563" />
      <line
         y2="295.7143"
         style="fill:none;"
         x1="507"
         x2="502.66"
         y1="295.7143"
         id="line10565" />
      <line
         y2="233.4286"
         style="fill:none;"
         x1="507"
         x2="502.66"
         y1="233.4286"
         id="line10567" />
      <line
         y2="171.1429"
         style="fill:none;"
         x1="507"
         x2="502.66"
         y1="171.1429"
         id="line10569" />
      <line
         y2="108.8571"
         style="fill:none;"
         x1="507"
         x2="502.66"
         y1="108.8571"
         id="line10571" />
      <line
         y2="46.5714"
         style="fill:none;"
         x1="507"
         x2="502.66"
         y1="46.5714"
         id="line10573" />
    </g>
    <g
       transform="translate(66.0667,358)"
       style="font-size:21px; fill:rgb(38,38,38); text-rendering:geometricPrecision; color-rendering:optimizeQuality; image-rendering:optimizeQuality; font-family:sans-serif; color-interpolation:linearRGB; stroke:rgb(38,38,38);"
       id="g10575">
      <text
         x="-12"
         xml:space="preserve"
         y="8.5"
         style="stroke:none;"
         id="text10577">0</text>
    </g>
    <g
       transform="translate(66.0667,295.7143)"
       style="font-size:21px; fill:rgb(38,38,38); text-rendering:geometricPrecision; color-rendering:optimizeQuality; image-rendering:optimizeQuality; font-family:sans-serif; color-interpolation:linearRGB; stroke:rgb(38,38,38);"
       id="g10579">
      <text
         x="-30"
         xml:space="preserve"
         y="8.5"
         style="stroke:none;"
         id="text10581">0.2</text>
    </g>
    <g
       transform="translate(66.0667,233.4286)"
       style="font-size:21px; fill:rgb(38,38,38); text-rendering:geometricPrecision; color-rendering:optimizeQuality; image-rendering:optimizeQuality; font-family:sans-serif; color-interpolation:linearRGB; stroke:rgb(38,38,38);"
       id="g10583">
      <text
         x="-30"
         xml:space="preserve"
         y="8.5"
         style="stroke:none;"
         id="text10585">0.4</text>
    </g>
    <g
       transform="translate(66.0667,171.1429)"
       style="font-size:21px; fill:rgb(38,38,38); text-rendering:geometricPrecision; color-rendering:optimizeQuality; image-rendering:optimizeQuality; font-family:sans-serif; color-interpolation:linearRGB; stroke:rgb(38,38,38);"
       id="g10587">
      <text
         x="-30"
         xml:space="preserve"
         y="8.5"
         style="stroke:none;"
         id="text10589">0.6</text>
    </g>
    <g
       transform="translate(66.0667,108.8571)"
       style="font-size:21px; fill:rgb(38,38,38); text-rendering:geometricPrecision; color-rendering:optimizeQuality; image-rendering:optimizeQuality; font-family:sans-serif; color-interpolation:linearRGB; stroke:rgb(38,38,38);"
       id="g10591">
      <text
         x="-30"
         xml:space="preserve"
         y="8.5"
         style="stroke:none;"
         id="text10593">0.8</text>
    </g>
    <g
       transform="translate(66.0667,46.5714)"
       style="font-size:21px; fill:rgb(38,38,38); text-rendering:geometricPrecision; color-rendering:optimizeQuality; image-rendering:optimizeQuality; font-family:sans-serif; color-interpolation:linearRGB; stroke:rgb(38,38,38);"
       id="g10595">
      <text
         x="-12"
         xml:space="preserve"
         y="8.5"
         style="stroke:none;"
         id="text10597">1</text>
    </g>
    <g
       transform="translate(32.0667,194.4999) rotate(-90)"
       style="font-size:21px; fill:rgb(38,38,38); text-rendering:geometricPrecision; color-rendering:optimizeQuality; image-rendering:optimizeQuality; font-family:sans-serif; color-interpolation:linearRGB; stroke:rgb(38,38,38);"
       id="g10599">
      <text
         x="-97.5"
         xml:space="preserve"
         y="-5"
         style="stroke:none;"
         id="text10601">Normalized intenstiy </text>
    </g>
    <g
       style="stroke-linecap:butt; fill:blue; text-rendering:geometricPrecision; color-rendering:optimizeQuality; image-rendering:optimizeQuality; stroke-linejoin:round; color-interpolation:linearRGB; stroke:blue; stroke-width:2.6667;"
       id="g10603">
      <path
         d="M289.9759 356.3973 L289.3171 356.3966 L288.5483 356.3722 L287.7794 356.3644 L287.1201 356.3875 L286.3509 356.3486 L285.6914 356.3367 L284.9218 356.3582 L284.262 356.2944 L283.4921 356.3181 L282.7221 356.3358 L282.0619 356.3431 L281.2915 356.3124 L280.6311 356.3711 L279.8604 356.3719 L279.1997 356.3424 L278.4287 356.3537 L277.6576 356.3727 L276.9965 356.3887 L276.225 356.3892 L275.5636 356.3159 L274.7919 356.3683 L274.1302 356.36 L273.3582 356.3165 L272.5859 356.3377 L271.9239 356.3022 L271.1513 356.3414 L270.489 356.2801 L269.7162 356.3092 L269.0536 356.3417 L268.2805 356.3462 L267.6177 356.3608 L266.8443 356.3601 L266.1812 356.3259 L265.4075 356.1975 L264.6336 356.2725 L263.9702 356.203 L263.196 356.2542 L262.5323 356.2092 L261.7578 356.2596 L261.0939 356.1825 L260.3191 356.1456 L259.6549 356.0009 L258.8798 355.94 L258.2154 355.8593 L257.44 355.7413 L256.7753 355.6971 L255.9997 355.4988 L255.3347 355.3825 L254.5588 355.1752 L253.7827 354.9498 L253.1174 354.6725 L252.3411 354.4067 L251.6755 354.0803 L250.8988 353.6341 L250.233 353.1539 L249.4561 352.4737 L248.79 351.8941 L248.0128 351.1269 L247.3466 350.3629 L246.569 349.4014 L245.9025 348.3478 L245.1247 346.9754 L244.458 345.7226 L243.6799 344.1682 L243.0129 342.5588 L242.2346 340.4407 L241.5674 338.3018 L240.7888 335.8416 L240.1213 333.8268 L239.3424 330.6 L238.6747 327.5583 L237.8955 323.8043 L237.2276 320.3649 L236.4482 316.5772 L235.78 312.758 L235.0003 307.4245 L234.3319 302.9557 L233.552 297.0353 L232.8833 293.3895 L232.1031 287.6989 L231.4342 281.192 L230.6537 274.2939 L229.9846 267.822 L229.2039 261.4335 L228.5346 255.4835 L227.7536 246.5327 L227.084 239.7387 L226.3027 231.5986 L225.6329 225.1864 L224.8514 218.1426 L224.1814 210.5263 L223.3996 202.2889 L222.7294 195.9158 L222.0591 190.2563 L221.2769 183.7772 L220.6064 177.6981 L219.8239 171.1909 L219.1532 166.7765 L218.3705 161.6817 L217.6995 158.1796 L216.9165 153.6521 L216.2453 150.341 L215.4621 147.195 L214.7907 144.843 L214.0073 142.9971 L213.3356 141.7064 L212.552 140.4357 L211.8801 139.2625 L211.2082 139.7036 L210.4241 139.3876 L209.752 139.5562 L208.9677 140.3348 L208.2953 140.7545 L207.5107 141.8249 L206.8382 143.0796 L206.0534 145.3043 L205.3806 146.9538 L204.5955 149.2159 L203.9225 151.2993 L203.2495 153.2469 L202.4641 157.0312 L201.7908 159.6049 L201.0051 162.8356 L200.3316 166.3713 L199.5458 170.115 L198.8721 173.4341 L198.0859 177.7294 L197.412 182.0598 L196.738 185.8223 L195.9516 190.4594 L195.2774 194.5257 L194.4907 199.7369 L193.8163 203.9616 L193.0294 208.8512 L192.3548 213.3052 L191.6801 217.459 L190.8928 222.8905 L190.2179 227.3829 L189.4304 231.6782 L188.7553 236.1301 L187.9676 241.1044 L187.2923 245.5369 L186.617 249.5011 L185.8289 254.2276 L185.1533 258.3714 L184.3651 262.8582 L183.6893 266.281 L182.9008 270.9731 L182.2248 274.7821 L181.5488 278.6913 L180.76 282.6009 L180.0838 286.0335 L179.2947 290.0237 L178.6183 293.3448 L177.829 297.0174 L177.1524 299.8653 L176.4757 302.6153 L175.6861 305.8277 L175.0092 308.4126 L174.2194 311.534 L173.5424 313.9073 L172.8652 316.1257 L172.0751 318.8084 L171.3978 320.8025 L170.6074 323.1415 L169.9299 324.8888 L169.2523 326.5032 L168.4617 328.3265 L167.7839 329.5753 L166.993 330.8556 L166.3151 331.619 L165.637 332.2279 L164.8459 332.591 L164.1677 332.7981 L163.3763 332.6342 L162.6979 332.399 L162.0194 332.3707 L161.2278 332.1228 L160.5491 332.0833 L159.7572 332.1669 L159.0784 332.3114 L158.3995 332.4427 L157.6073 332.5261 L156.9283 332.6096 L156.1359 332.6928 L155.4566 332.7563 L154.7773 332.774 L153.9846 332.7554 L153.3051 332.902 L152.5123 333.0284 L151.8326 333.1901 L151.1529 333.4738 L150.3597 334.0073 L149.6798 334.3215 L148.9998 335.0274 L148.2064 335.7049 L147.5262 336.3068 L146.7326 336.988 L146.0523 337.3992 L145.3719 337.8473 L144.578 338.1956 L143.8974 338.3707 L143.2168 338.3437 L142.4226 338.0547 L141.7418 337.3901 L140.9475 336.3137 L140.2665 335.2324 L139.5855 333.3389 L138.7908 331.3793 L138.1096 329.3851 L137.4284 327.706 L136.6335 325.7854 L135.9521 324.5441 L135.157 323.8779 L134.4754 323.7145 L133.7937 323.7983 L132.9984 323.9991 L132.3166 324.1756 L131.6348 324.0804 L130.8391 323.6261 L130.1571 322.9358 L129.475 321.7371 L128.6791 319.944 L127.9969 318.4207 L127.2009 315.9149 L126.5185 313.8697 L125.836 311.2267 L125.0397 308.1053 L124.3571 306.165 L123.6744 303.7246 L122.8779 300.8256 L122.195 298.3608 L121.5121 296.0023 L120.7153 293.7818 L120.0323 291.6797 L119.3492 289.4604 L118.5521 286.5556 L117.8689 284.1524 L117.0717 281.2703 L116.3883 278.6586 L115.7048 276.5226 L114.9074 272.3752 L114.2238 269.3053 L113.5401 266.5183 L112.7424 263.8793 L112.0586 261.8136 L111.3748 259.6222 L110.5769 258.1201 L109.8928 257.0514 L109.2088 256.0759 L108.4151 254.856 L107.735 254.2362 L106.9415 254.0454 L106.2612 254.4572 L105.5809 255.2572 L104.7871 257.1996 L104.1067 259.6188 L103.4262 261.7286 L102.6322 264.4451 L101.9515 266.7551 L101.1574 269.9734 L100.4766 272.7224 L99.7958 274.6521 L99.0014 276.682 L98.3204 277.7197 L97.6394 277.9584 L96.8448 276.8076 L96.1637 272.8932 L95.3689 266.2868 L94.6877 258.7199 L94.0064 244.4913 L93.2114 226.3872 L92.53 204.4365 L91.8485 183.1944 L91.0533 154.2976 L90.3717 125.4368 L89.69 101.9534 L88.8946 80.348 L88.2128 67.9714 L87.4173 56.7013 L86.7354 50.2185 L86.0534 47.0216 L85.2577 46.5714 L84.5756 48.4671 L83.8935 53.3449 L83.0976 57.8989 L82.4153 68.4984 L81.733 77.0952 L80.9369 88.9765 L80.2545 98.1964 L79.4582 112.1709 L78.7757 125.2712 L78.0931 137.1019 L77.2967 149.307 L76.614 158.7998 L75.9312 175.8045 L75.1346 192.2677 L74.4517 198.3634 L73.7688 223.4613 L72.9717 259.6135"
         style="fill:none; fill-rule:evenodd;"
         id="path10605" />
    </g>
    <g
       style="stroke-linecap:butt; fill:red; text-rendering:geometricPrecision; color-rendering:optimizeQuality; image-rendering:optimizeQuality; stroke-linejoin:bevel; stroke-dasharray:8,8; color-interpolation:linearRGB; stroke:red; stroke-width:2.6667; stroke-miterlimit:1;"
       id="g10607">
      <path
         d="M217.6667 356.936 L218.4334 357.223 L219.0844 357.4334 L219.8584 357.1839 L220.5094 356.4844 L221.2833 357.0984 L222.0501 356.9295 L222.7011 357.0335 L223.475 356.707 L224.126 357.4699 L224.9 356.2421 L225.674 356.1182 L226.3467 355.6794 L227.1206 355.6624 L227.7933 355.2375 L228.5673 355.4328 L229.24 353.9927 L230.014 354.3867 L230.6867 353.4142 L231.4606 352.7992 L232.1333 351.4167 L232.9001 351.1243 L233.5511 350.2836 L234.325 348.2725 L234.976 347.4085 L235.75 344.9322 L236.5167 342.9254 L237.1677 340.2618 L237.9417 338.3376 L238.5927 335.2633 L239.3667 331.9591 L240.1334 328.3954 L240.7844 324.6893 L241.5584 320.3639 L242.2094 317.5896 L242.9833 311.4552 L243.7501 305.091 L244.4011 298.5204 L245.175 293.5995 L245.826 286.766 L246.6 279.3962 L247.374 270.4505 L248.0467 265.7568 L248.8206 250.4855 L249.4933 244.4719 L250.2673 231.4003 L250.94 223.3585 L251.714 209.9126 L252.3867 202.5515 L253.1606 190.9727 L253.8333 184.3292 L254.6001 173.1146 L255.2511 169.768 L256.025 159.1768 L256.676 150.8857 L257.45 137.7568 L258.2167 126.7839 L258.8677 121.2009 L259.6417 107.6246 L260.2927 110.6 L261.0667 100.9203 L261.8189 89.7206 L262.4699 81.9484 L263.2222 72.9343 L263.9745 66.1244 L264.734 65.3643 L265.385 61.0608 L266.1372 51.7323 L266.8895 55.0629 L267.5405 53.3654 L268.3 48.183 L269.0667 58.4384 L269.7177 46.5714 L270.4917 59.2027 L271.1427 50.9939 L271.9167 53.0422 L272.6834 59.0454 L273.3344 56.3339 L274.1084 57.2266 L274.7594 56.4554 L275.5333 66.5282 L276.3001 69.0998 L276.951 76.1141 L277.725 70.5938 L278.376 80.5523 L279.15 77.8368 L279.9167 87.5151 L280.5677 93.6365 L281.3417 98.2614 L281.9927 107.4467 L282.7667 108.6438 L283.519 118.5026 L284.1699 120.3168 L284.9222 129.4176 L285.6745 136.731 L286.434 144.5255 L287.085 145.6471 L287.8372 152.8847 L288.5895 155.9266 L289.2405 161.063 L290 164.8537 L290.7667 172.5817 L291.4177 178.5167 L292.1917 180.8643 L292.8427 188.8457 L293.6167 188.7974 L294.3834 198.4755 L295.0344 196.2991 L295.8084 206.3399 L296.4594 210.4574 L297.2333 217.8213 L297.9856 223.209 L298.6366 227.2329 L299.3889 230.8822 L300.1411 233.3361 L300.9006 238.7668 L301.5516 239.7621 L302.3039 245.1637 L303.0562 250.2805 L303.7072 255.313 L304.4667 254.1052 L305.2189 261.4943 L305.8699 263.0135 L306.6222 266.0803 L307.3745 270.4164 L308.134 271.5539 L308.7849 275.9284 L309.5372 276.5569 L310.2895 282.7241 L310.9405 282.5188 L311.7 286.2201 L312.4522 289.7294 L313.1033 292.8904 L313.8555 294.6774 L314.6078 295.1641 L315.3673 300.4398 L316.0183 301.1633 L316.7706 303.6946 L317.5228 306.3745 L318.1738 307.3929 L318.9333 308.8903 L319.6856 310.0766 L320.3366 312.5688 L321.0889 314.6338 L321.8412 315.8312 L322.6006 318.4479 L323.2516 317.2274 L324.0039 319.6957 L324.7562 321.4977 L325.4072 323.1723 L326.1667 324.3028 L326.9045 325.5666 L327.6495 327.1321 L328.2933 327.9235 L329.0383 328.432 L329.7833 329.6375 L330.5211 330.5492 L331.2661 332.6322 L331.9099 332.8899 L332.6549 333.0287 L333.4 334.3202 L334.1378 335.3004 L334.8828 336.7922 L335.5266 336.9446 L336.2716 338.366 L337.0167 338.523 L337.7545 339.6942 L338.4995 340.4769 L339.1433 340.8948 L339.8883 341.9394 L340.6333 341.9578 L341.3856 342.5939 L342.0366 343.6193 L342.7888 343.7077 L343.5411 344.3864 L344.3006 344.9266 L344.9516 345.6787 L345.7039 345.8548 L346.4561 346.8577 L347.1072 346.9526 L347.8667 347.4748 L348.6045 347.9414 L349.3495 348.1469 L349.9933 348.1209 L350.7383 349.1871 L351.4833 349.1894 L352.2212 349.4929 L352.9662 349.9447 L353.6099 350.0587 L354.3549 350.4366 L355.1 350.7041 L355.8378 350.8033 L356.5828 351.0716 L357.2266 351.3357 L357.9716 351.5858 L358.7167 351.8643 L359.4545 352.0306 L360.1995 353.0656 L360.8433 352.4305 L361.5883 353.106 L362.3333 352.785 L363.0639 352.5233 L363.7945 352.7328 L364.5323 353.1464 L365.2628 354.4354 L366.0006 354.4194 L366.6299 354.2894 L367.3605 353.8894 L368.0983 354.0137 L368.8289 354.8601 L369.5667 354.8888 L370.3045 355.04 L371.0495 354.5143 L371.6933 354.5684 L372.4383 354.8666 L373.1833 354.7769 L373.9211 355.2689 L374.6662 355.4803 L375.3099 355.8762 L376.0549 355.1502 L376.8 355.5221 L377.5306 356.2405 L378.2611 356.1526 L378.9989 355.0771 L379.7295 355.1828 L380.4673 355.9329 L381.0966 355.5043 L381.8272 356.0863 L382.5649 356.2987 L383.2955 356.454 L384.0333 355.9306 L384.7639 356.2898 L385.4945 356.4583 L386.2322 356.2872 L386.9628 356.8504 L387.7007 356.4938 L388.3299 357.0924 L389.0605 356.6023 L389.7983 356.2393 L390.5288 356.5985 L391.2667 357.2001 L391.9973 356.7157 L392.7278 357.0758 L393.4656 356.8741 L394.1962 356.5753 L394.934 356.357 L395.5633 356.6672 L396.2939 356.5948 L397.0316 356.9401 L397.7622 356.4099 L398.5 357.0389 L399.2306 357.5561 L399.9612 356.4797 L400.6989 356.767 L401.4295 356.4622 L402.1673 357.7439 L402.7966 356.9965 L403.5272 356.8941 L404.265 357.4647 L404.9955 356.8135 L405.7333 357.5657 L406.4567 357.8249 L407.18 357.3352 L407.9033 357.5902 L408.6267 357.2223 L409.35 357.7341 L410.0733 357.8274 L410.7967 357.6586 L411.52 357.5056 L412.2433 357.8303 L412.9667 357.5881 L413.6972 357.7559 L414.4278 357.3562 L415.1656 356.8388 L415.8961 357.5275 L416.634 357.5506 L417.2633 357.1448 L417.947 358.039"
         style="fill:none; fill-rule:evenodd;"
         id="path10609" />
      <path
         d="M418.099 358.039 L418.7316 357.6702 L419.4622 357.3296 L420.2 357.6004 L420.9233 357.4951 L421.6467 357.3537 L422.37 357.6843 L423.0933 357.0128 L423.8167 357.9369 L424.54 357.7397 L425.2633 357.5894 L425.8098 358.039"
         style="fill:none; fill-rule:evenodd;"
         id="path10611" />
      <path
         d="M426.2396 358.039 L426.71 357.7685 L427.4333 357.6172 L428.1567 358.0138 L428.88 357.835 L429.6033 357.846 L430.3267 357.5612 L431.05 357.5744 L431.7733 357.923 L432.4967 357.6651 L433.22 357.3569 L433.9433 357.7578 L434.5372 358.039"
         style="fill:none; fill-rule:evenodd;"
         id="path10613" />
    </g>
    <g
       style="stroke-linecap:butt; fill:blue; text-rendering:geometricPrecision; color-rendering:optimizeQuality; image-rendering:optimizeQuality; stroke-linejoin:round; color-interpolation:linearRGB; stroke:blue; stroke-width:2.6667;"
       id="g10615">
      <line
         y2="120.6333"
         style="fill:none;"
         x1="208.425"
         x2="208.425"
         y1="80.4"
         id="line10617" />
      <path
         d="M213.425 115.9667 L208.425 129.3 L208.425 120.6333 L213.425 115.9667"
         style="fill:none; stroke-width:0.6667; fill-rule:evenodd;"
         id="path10619" />
      <path
         d="M208.425 129.3 L203.425 115.9667 L208.425 120.6333 L208.425 129.3"
         style="fill:none; stroke-width:0.6667; fill-rule:evenodd;"
         id="path10621" />
    </g>
    <g
       style="fill:blue; text-rendering:optimizeSpeed; color-rendering:optimizeSpeed; image-rendering:optimizeSpeed; shape-rendering:crispEdges; color-interpolation:sRGB; stroke:blue;"
       id="g10623">
      <path
         style="stroke:none;"
         d="M213.425 115.9667 L208.425 129.3 L208.425 120.6333 Z"
         id="path10625" />
      <path
         style="stroke:none;"
         d="M208.425 129.3 L203.425 115.9667 L208.425 120.6333 Z"
         id="path10627" />
    </g>
  </g>
  <g
     id="drawing"
     transform="matrix(1.8062052,0,0,1.8085525,257.27263,1.900239)"
     style="stroke-width:0.55328751">
    <g
       clip-path="url(#46)"
       id="page"
       style="stroke-width:0.55328751">
      <g
         id="g11182"
         style="stroke-width:0.55328751">
        <text
           id="text11184"
           xml:space="preserve"
           style="text-anchor:start;stroke-width:0.55328751;text-rendering:geometricPrecision"><tspan
             id="tspan11186"
             font-size="10"
             y="60.060001"
             x="92.080002"
             style="font-size:10px;font-family:Arial;fill:#000000;stroke-width:0.55328751">O</tspan></text>
      </g>
      <g
         id="g11188"
         style="stroke-width:0.55328751">
        <text
           id="text11190"
           xml:space="preserve"
           style="text-anchor:start;stroke-width:0.55328751;text-rendering:geometricPrecision"><tspan
             id="tspan11192"
             font-size="10"
             y="60.060001"
             x="116.96"
             style="font-size:10px;font-family:Arial;fill:#000000;stroke-width:0.55328751">O</tspan></text>
      </g>
      <g
         id="g11194"
         style="stroke-width:0.55328751">
        <text
           id="text11196"
           xml:space="preserve"
           style="text-anchor:start;stroke-width:0.55328751;text-rendering:geometricPrecision"><tspan
             id="tspan11198"
             font-size="10"
             y="60.060001"
             x="42.419998"
             style="font-size:10px;font-family:Arial;fill:#000000;stroke-width:0.55328751">N</tspan></text>
      </g>
      <g
         id="Solid"
         style="stroke-width:0.55328751">
        <path
           id="path11201"
           d="m 100.29,59.76 0,0 0.49,-0.88 0.5,-0.87 8.14,4.61 -1,0.59 -1,0.59 z"
           inkscape:connector-curvature="0"
           style="fill:#000000;fill-rule:evenodd;stroke:#000000;stroke-width:0;stroke-linejoin:miter;shape-rendering:geometricPrecision" />
      </g>
      <g
         id="g11203"
         style="stroke-width:0.55328751">
        <path
           id="path11205"
           d="m 90.72,57.99 0,0 0.5,0.87 0.49,0.87 -7.16,4.07 -1.01,-0.59 0,-1.15 z"
           inkscape:connector-curvature="0"
           style="fill:#000000;fill-rule:evenodd;stroke:#000000;stroke-width:0;stroke-linejoin:miter;shape-rendering:geometricPrecision" />
      </g>
      <g
         id="g11207"
         style="stroke-width:0.55328751">
        <line
           id="line11209"
           y2="56.66"
           x2="114.88"
           y1="61.02"
           x1="107.18"
           style="stroke:#000000;stroke-width:1.11210787;shape-rendering:auto" />
        <path
           id="path11211"
           d="m 109.43,64.37 0,0 0,2.31 8.42,-4.77 -0.99,-1.75 z"
           inkscape:connector-curvature="0"
           style="fill:#000000;fill-rule:evenodd;stroke:#000000;stroke-width:0;stroke-linejoin:miter;shape-rendering:geometricPrecision" />
        <path
           id="path11213"
           d="m 105.87,60.61 0,0 2.04,1.16 7.46,-4.23 -0.99,-1.75 z"
           inkscape:connector-curvature="0"
           style="fill:#000000;fill-rule:evenodd;stroke:#000000;stroke-width:0;stroke-linejoin:miter;shape-rendering:geometricPrecision" />
      </g>
      <g
         id="g11215"
         style="stroke-width:0.55328751">
        <path
           id="path11217"
           d="m 107.42,63.8 0,0 1,-0.59 1,-0.59 0,15.68 -1,-0.58 -1,-0.58 z"
           inkscape:connector-curvature="0"
           style="fill:#000000;fill-rule:evenodd;stroke:#000000;stroke-width:0;stroke-linejoin:miter;shape-rendering:geometricPrecision" />
      </g>
      <g
         id="g11219"
         style="stroke-width:0.55328751">
        <path
           id="path11221"
           d="m 82.54,63.8 0,0 1,-0.59 1.01,0.59 0,13.34 -1.01,0.58 -1,-0.58 z"
           inkscape:connector-curvature="0"
           style="fill:#000000;fill-rule:evenodd;stroke:#000000;stroke-width:0;stroke-linejoin:miter;shape-rendering:geometricPrecision" />
        <line
           id="line11223"
           y2="74.809998"
           x2="78.519997"
           y1="66.160004"
           x1="78.519997"
           style="stroke:#000000;stroke-width:1.11210787;shape-rendering:auto" />
      </g>
      <g
         id="g11225"
         style="stroke-width:0.55328751">
        <path
           id="path11227"
           d="m 83.54,62.06 0,0 0,1.15 -1,0.59 -11.64,-6.49 0,-1.15 1.01,-0.59 z"
           inkscape:connector-curvature="0"
           style="fill:#000000;fill-rule:evenodd;stroke:#000000;stroke-width:0;stroke-linejoin:miter;shape-rendering:geometricPrecision" />
      </g>
      <g
         id="g11229"
         style="stroke-width:0.55328751">
        <path
           id="path11231"
           d="m 107.42,77.14 0,0 1,0.58 1,0.58 -12.43,7.25 -1.01,-0.58 0,-1.16 z"
           inkscape:connector-curvature="0"
           style="fill:#000000;fill-rule:evenodd;stroke:#000000;stroke-width:0;stroke-linejoin:miter;shape-rendering:geometricPrecision" />
        <line
           id="line11233"
           y2="79.150002"
           x2="95.980003"
           y1="74.830002"
           x1="103.4"
           style="stroke:#000000;stroke-width:1.11210787;shape-rendering:auto" />
      </g>
      <g
         id="g11235"
         style="stroke-width:0.55328751">
        <path
           id="path11237"
           d="m 83.54,78.88 0,0 0,-1.16 1.01,-0.58 11.43,6.67 0,1.16 -1,0.58 z"
           inkscape:connector-curvature="0"
           style="fill:#000000;fill-rule:evenodd;stroke:#000000;stroke-width:0;stroke-linejoin:miter;shape-rendering:geometricPrecision" />
      </g>
      <g
         id="g11239"
         style="stroke-width:0.55328751">
        <path
           id="path11241"
           d="m 82.54,77.14 0,0 1,0.58 0,1.16 -12.64,7.25 0,-1.16 0,-1.16 z"
           inkscape:connector-curvature="0"
           style="fill:#000000;fill-rule:evenodd;stroke:#000000;stroke-width:0;stroke-linejoin:miter;shape-rendering:geometricPrecision" />
      </g>
      <g
         id="g11243"
         style="stroke-width:0.55328751">
        <path
           id="path11245"
           d="m 69.9,55.57 0,0 1,0.59 0,1.15 -11.43,6.49 -1.01,-0.59 0,-1.16 z"
           inkscape:connector-curvature="0"
           style="fill:#000000;fill-rule:evenodd;stroke:#000000;stroke-width:0;stroke-linejoin:miter;shape-rendering:geometricPrecision" />
        <line
           id="line11247"
           y2="66.139999"
           x2="63.490002"
           y1="61.919998"
           x1="70.919998"
           style="stroke:#000000;stroke-width:1.11210787;shape-rendering:auto" />
      </g>
      <g
         id="g11249"
         style="stroke-width:0.55328751">
        <path
           id="path11251"
           d="m 71.91,55.57 0,0 -1.01,0.59 -1,-0.59 0,-13.55 1,-0.58 1,-0.58 z"
           inkscape:connector-curvature="0"
           style="fill:#000000;fill-rule:evenodd;stroke:#000000;stroke-width:0;stroke-linejoin:miter;shape-rendering:geometricPrecision" />
      </g>
      <g
         id="g11253"
         style="stroke-width:0.55328751">
        <path
           id="path11255"
           d="m 94.98,85.55 0,0 1,-0.58 1.01,0.58 -0.01,14.14 -1,0 -1,0 z"
           inkscape:connector-curvature="0"
           style="fill:#000000;fill-rule:evenodd;stroke:#000000;stroke-width:0;stroke-linejoin:miter;shape-rendering:geometricPrecision" />
      </g>
      <g
         id="g11257"
         style="stroke-width:0.55328751">
        <path
           id="path11259"
           d="m 70.9,83.81 0,0 0,1.16 0,1.16 -12.43,-7.24 -0.01,-1.17 1.01,-0.58 z"
           inkscape:connector-curvature="0"
           style="fill:#000000;fill-rule:evenodd;stroke:#000000;stroke-width:0;stroke-linejoin:miter;shape-rendering:geometricPrecision" />
        <line
           id="line11261"
           y2="74.830002"
           x2="63.490002"
           y1="79.169998"
           x1="70.919998"
           style="stroke:#000000;stroke-width:1.11210787;shape-rendering:auto" />
      </g>
      <g
         id="g11263"
         style="stroke-width:0.55328751">
        <path
           id="path11265"
           d="m 57.46,63.8 0,0 1,-0.59 1.01,0.59 0,13.34 -1.01,0.58 -1,-0.56 z"
           inkscape:connector-curvature="0"
           style="fill:#000000;fill-rule:evenodd;stroke:#000000;stroke-width:0;stroke-linejoin:miter;shape-rendering:geometricPrecision" />
      </g>
      <g
         id="g11267"
         style="stroke-width:0.55328751">
        <path
           id="path11269"
           d="m 58.46,62.05 0,0 0,1.16 -1,0.59 -7.67,-4.35 0.49,-0.87 0.5,-0.88 z"
           inkscape:connector-curvature="0"
           style="fill:#000000;fill-rule:evenodd;stroke:#000000;stroke-width:0;stroke-linejoin:miter;shape-rendering:geometricPrecision" />
      </g>
      <g
         id="g11271"
         style="stroke-width:0.55328751">
        <path
           id="path11273"
           d="m 71.9,40.86 0,0 -1,0.58 -1,0.58 -11.43,-6.67 -0.01,-1.17 -0.01,-1.17 z"
           inkscape:connector-curvature="0"
           style="fill:#000000;fill-rule:evenodd;stroke:#000000;stroke-width:0;stroke-linejoin:miter;shape-rendering:geometricPrecision" />
      </g>
      <g
         id="g11275"
         style="stroke-width:0.55328751">
        <path
           id="path11277"
           d="m 57.46,77.16 0,0 1,0.56 0.01,1.17 -12.23,7.46 -0.01,-1.17 -0.01,-1.17 z"
           inkscape:connector-curvature="0"
           style="fill:#000000;fill-rule:evenodd;stroke:#000000;stroke-width:0;stroke-linejoin:miter;shape-rendering:geometricPrecision" />
      </g>
      <g
         id="g11279"
         style="stroke-width:0.55328751">
        <path
           id="path11281"
           d="m 41.32,57.71 0,0 0.5,0.87 0.5,0.87 -7.52,4.34 -1.01,-0.58 -1.01,-0.58 z"
           inkscape:connector-curvature="0"
           style="fill:#000000;fill-rule:evenodd;stroke:#000000;stroke-width:0;stroke-linejoin:miter;shape-rendering:geometricPrecision" />
      </g>
      <g
         id="g11283"
         style="stroke-width:0.55328751">
        <path
           id="path11285"
           d="m 47.03,52.81 0,0 -1.01,0 -1,0 -0.01,-11.73 1.01,0.57 1.01,0.57 z"
           inkscape:connector-curvature="0"
           style="fill:#000000;fill-rule:evenodd;stroke:#000000;stroke-width:0;stroke-linejoin:miter;shape-rendering:geometricPrecision" />
      </g>
      <g
         id="g11287"
         style="stroke-width:0.55328751">
        <path
           id="path11289"
           d="m 58.45,33.01 0,0 0.01,1.17 0.01,1.17 -11.44,6.87 -1.01,-0.57 -1.01,-0.57 z"
           inkscape:connector-curvature="0"
           style="fill:#000000;fill-rule:evenodd;stroke:#000000;stroke-width:0;stroke-linejoin:miter;shape-rendering:geometricPrecision" />
      </g>
      <g
         id="g11291"
         style="stroke-width:0.55328751">
        <path
           id="path11293"
           d="m 46.22,84.01 0,0 0.01,1.17 0.01,1.17 -13.46,-7.84 1.01,-0.58 1.01,-0.58 z"
           inkscape:connector-curvature="0"
           style="fill:#000000;fill-rule:evenodd;stroke:#000000;stroke-width:0;stroke-linejoin:miter;shape-rendering:geometricPrecision" />
      </g>
      <g
         id="g11295"
         style="stroke-width:0.55328751">
        <path
           id="path11297"
           d="m 32.78,62.63 0,0 1.01,0.58 1.01,0.58 0,13.56 -1.01,0.58 -1.01,0.58 z"
           inkscape:connector-curvature="0"
           style="fill:#000000;fill-rule:evenodd;stroke:#000000;stroke-width:0;stroke-linejoin:miter;shape-rendering:geometricPrecision" />
      </g>
    </g>
    <text
       xml:space="preserve"
       style="font-style:normal;font-weight:normal;font-size:11.61903858px;line-height:125%;font-family:sans-serif;letter-spacing:0px;word-spacing:0px;writing-mode:lr-tb;fill:#000000;fill-opacity:1;stroke:none;stroke-width:1px;stroke-linecap:butt;stroke-linejoin:miter;stroke-opacity:1"
       x="34.893829"
       y="115.139"
       id="text11367"
       sodipodi:linespacing="125%"
       transform="scale(1.0006496,0.99935084)"><tspan
         sodipodi:role="line"
         id="tspan11369"
         x="34.893829"
         y="115.139">Coumarin 102</tspan></text>
  </g>
</svg>
