<?xml version="1.0"?>
<!DOCTYPE svg PUBLIC '-//W3C//DTD SVG 1.0//EN'
          'http://www.w3.org/TR/2001/REC-SVG-20010904/DTD/svg10.dtd'>
<svg xmlns:xlink="http://www.w3.org/1999/xlink" style="fill-opacity:1; color-rendering:auto; color-interpolation:auto; stroke:black; text-rendering:auto; stroke-linecap:square; stroke-miterlimit:10; stroke-opacity:1; shape-rendering:auto; fill:black; stroke-dasharray:none; font-weight:normal; stroke-width:1; font-family:'Dialog'; font-style:normal; stroke-linejoin:miter; font-size:12px; stroke-dashoffset:0; image-rendering:auto;" width="560" height="420" xmlns="http://www.w3.org/2000/svg"
><!--Generated by the Batik Graphics2D SVG Generator--><defs id="genericDefs"
  /><g
  ><defs id="defs1"
    ><clipPath clipPathUnits="userSpaceOnUse" id="clipPath1"
      ><path d="M0 0 L560 0 L560 420 L0 420 L0 0 Z"
      /></clipPath
      ><font horiz-adv-x="75.0" id="font1"
      ><font-face ascent="100.53711" descent="21.972656" units-per-em="100" style="font-style:normal; font-family:sans-serif; font-weight:normal;"
        /><missing-glyph horiz-adv-x="75.0" d="M12.5 0 L12.5 62.5 L62.5 62.5 L62.5 0 L12.5 0 ZM14.0625 1.5625 L60.9375 1.5625 L60.9375 60.9375 L14.0625 60.9375 L14.0625 1.5625 Z"
        /><glyph unicode="0" horiz-adv-x="55.615234" d="M4.1562 35.2969 Q4.1562 48 6.7656 55.7422 Q9.375 63.4844 14.5234 67.6797 Q19.6719 71.875 27.4844 71.875 Q33.25 71.875 37.5938 69.5547 Q41.9375 67.2344 44.7734 62.8672 Q47.6094 58.5 49.2188 52.2266 Q50.8281 45.9531 50.8281 35.2969 Q50.8281 22.7031 48.2422 14.9688 Q45.6562 7.2344 40.5078 3.0078 Q35.3594 -1.2188 27.4844 -1.2188 Q17.1406 -1.2188 11.2344 6.2031 Q4.1562 15.1406 4.1562 35.2969 ZM13.1875 35.2969 Q13.1875 17.6719 17.3125 11.8359 Q21.4375 6 27.4844 6 Q33.5469 6 37.6719 11.8594 Q41.7969 17.7188 41.7969 35.2969 Q41.7969 52.9844 37.6719 58.7891 Q33.5469 64.5938 27.3906 64.5938 Q21.3438 64.5938 17.7188 59.4688 Q13.1875 52.9375 13.1875 35.2969 Z"
        /><glyph unicode="4" horiz-adv-x="55.615234" d="M32.3281 0 L32.3281 17.1406 L1.2656 17.1406 L1.2656 25.2031 L33.9375 71.5781 L41.1094 71.5781 L41.1094 25.2031 L50.7812 25.2031 L50.7812 17.1406 L41.1094 17.1406 L41.1094 0 L32.3281 0 ZM32.3281 25.2031 L32.3281 57.4688 L9.9062 25.2031 L32.3281 25.2031 Z"
        /><glyph unicode="5" horiz-adv-x="55.615234" d="M4.1562 18.75 L13.375 19.5312 Q14.4062 12.7969 18.1406 9.3984 Q21.875 6 27.1562 6 Q33.5 6 37.8906 10.7891 Q42.2812 15.5781 42.2812 23.4844 Q42.2812 31 38.0625 35.3516 Q33.8438 39.7031 27 39.7031 Q22.75 39.7031 19.3359 37.7734 Q15.9219 35.8438 13.9688 32.7656 L5.7188 33.8438 L12.6406 70.6094 L48.25 70.6094 L48.25 62.2031 L19.6719 62.2031 L15.8281 42.9688 Q22.2656 47.4688 29.3438 47.4688 Q38.7188 47.4688 45.1641 40.9688 Q51.6094 34.4688 51.6094 24.2656 Q51.6094 14.5469 45.9531 7.4688 Q39.0625 -1.2188 27.1562 -1.2188 Q17.3906 -1.2188 11.2109 4.25 Q5.0312 9.7188 4.1562 18.75 Z"
        /><glyph unicode="6" horiz-adv-x="55.615234" d="M49.75 54.0469 L41.0156 53.375 Q39.8438 58.5469 37.7031 60.8906 Q34.125 64.6562 28.9062 64.6562 Q24.7031 64.6562 21.5312 62.3125 Q17.3906 59.2812 14.9922 53.4688 Q12.5938 47.6562 12.5 36.9219 Q15.6719 41.75 20.2656 44.0938 Q24.8594 46.4375 29.8906 46.4375 Q38.6719 46.4375 44.8516 39.9688 Q51.0312 33.5 51.0312 23.25 Q51.0312 16.5 48.125 10.7188 Q45.2188 4.9375 40.1406 1.8594 Q35.0625 -1.2188 28.6094 -1.2188 Q17.625 -1.2188 10.6953 6.8594 Q3.7656 14.9375 3.7656 33.5 Q3.7656 54.25 11.4219 63.6719 Q18.1094 71.875 29.4375 71.875 Q37.8906 71.875 43.2891 67.1406 Q48.6875 62.4062 49.75 54.0469 ZM13.875 23.1875 Q13.875 18.6562 15.7969 14.5078 Q17.7188 10.3594 21.1875 8.1797 Q24.6562 6 28.4688 6 Q34.0312 6 38.0391 10.4922 Q42.0469 14.9844 42.0469 22.7031 Q42.0469 30.125 38.0859 34.3984 Q34.125 38.6719 28.125 38.6719 Q22.1719 38.6719 18.0234 34.3984 Q13.875 30.125 13.875 23.1875 Z"
        /><glyph unicode="7" horiz-adv-x="55.615234" d="M4.7344 62.2031 L4.7344 70.6562 L51.0781 70.6562 L51.0781 63.8125 Q44.2344 56.5469 37.5234 44.4844 Q30.8125 32.4219 27.1562 19.6719 Q24.5156 10.6875 23.7812 0 L14.75 0 Q14.8906 8.4531 18.0625 20.4141 Q21.2344 32.375 27.1719 43.4844 Q33.1094 54.5938 39.7969 62.2031 L4.7344 62.2031 Z"
        /><glyph unicode="8" horiz-adv-x="55.615234" d="M17.6719 38.8125 Q12.2031 40.8281 9.5703 44.5391 Q6.9375 48.25 6.9375 53.4219 Q6.9375 61.2344 12.5547 66.5547 Q18.1719 71.875 27.4844 71.875 Q36.8594 71.875 42.5781 66.4297 Q48.2969 60.9844 48.2969 53.1719 Q48.2969 48.1875 45.6797 44.5078 Q43.0625 40.8281 37.75 38.8125 Q44.3438 36.6719 47.7812 31.8828 Q51.2188 27.0938 51.2188 20.4531 Q51.2188 11.2812 44.7266 5.0312 Q38.2344 -1.2188 27.6406 -1.2188 Q17.0469 -1.2188 10.5469 5.0547 Q4.0469 11.3281 4.0469 20.7031 Q4.0469 27.6875 7.5938 32.3984 Q11.1406 37.1094 17.6719 38.8125 ZM15.9219 53.7188 Q15.9219 48.6406 19.1953 45.4141 Q22.4688 42.1875 27.6875 42.1875 Q32.7656 42.1875 36.0156 45.3828 Q39.2656 48.5781 39.2656 53.2188 Q39.2656 58.0625 35.9141 61.3594 Q32.5625 64.6562 27.5938 64.6562 Q22.5625 64.6562 19.2422 61.4297 Q15.9219 58.2031 15.9219 53.7188 ZM13.0938 20.6562 Q13.0938 16.8906 14.875 13.375 Q16.6562 9.8594 20.1719 7.9297 Q23.6875 6 27.7344 6 Q34.0312 6 38.1328 10.0547 Q42.2344 14.1094 42.2344 20.3594 Q42.2344 26.7031 38.0156 30.8594 Q33.7969 35.0156 27.4375 35.0156 Q21.2344 35.0156 17.1641 30.9141 Q13.0938 26.8125 13.0938 20.6562 Z"
        /><glyph unicode="9" horiz-adv-x="55.615234" d="M5.4688 16.5469 L13.9219 17.3281 Q14.9844 11.375 18.0156 8.6875 Q21.0469 6 25.7812 6 Q29.8281 6 32.8828 7.8594 Q35.9375 9.7188 37.8906 12.8203 Q39.8438 15.9219 41.1641 21.1953 Q42.4844 26.4688 42.4844 31.9375 Q42.4844 32.5156 42.4375 33.6875 Q39.7969 29.5 35.2344 26.8828 Q30.6719 24.2656 25.3438 24.2656 Q16.4531 24.2656 10.3047 30.7109 Q4.1562 37.1562 4.1562 47.7031 Q4.1562 58.5938 10.5781 65.2344 Q17 71.875 26.6562 71.875 Q33.6406 71.875 39.4297 68.1172 Q45.2188 64.3594 48.2188 57.3984 Q51.2188 50.4375 51.2188 37.25 Q51.2188 23.5312 48.2422 15.4062 Q45.2656 7.2812 39.3828 3.0312 Q33.5 -1.2188 25.5938 -1.2188 Q17.1875 -1.2188 11.8672 3.4453 Q6.5469 8.1094 5.4688 16.5469 ZM41.4531 48.1406 Q41.4531 55.7188 37.4297 60.1562 Q33.4062 64.5938 27.7344 64.5938 Q21.875 64.5938 17.5312 59.8125 Q13.1875 55.0312 13.1875 47.4062 Q13.1875 40.5781 17.3125 36.3047 Q21.4375 32.0312 27.4844 32.0312 Q33.5938 32.0312 37.5234 36.3047 Q41.4531 40.5781 41.4531 48.1406 Z"
        /><glyph unicode=")" horiz-adv-x="33.30078" d="M12.3594 -21.0469 L6.0625 -21.0469 Q20.6562 2.3906 20.6562 25.875 Q20.6562 35.0625 18.5625 44.0938 Q16.8906 51.4219 13.9219 58.1562 Q12.0156 62.5469 6.0625 72.7969 L12.3594 72.7969 Q21.5312 60.5469 25.9219 48.1875 Q29.6875 37.5469 29.6875 25.9219 Q29.6875 12.75 24.6328 0.4453 Q19.5781 -11.8594 12.3594 -21.0469 Z"
        /><glyph unicode="m" horiz-adv-x="83.30078" d="M6.5938 0 L6.5938 51.8594 L14.4531 51.8594 L14.4531 44.5781 Q16.8906 48.3906 20.9453 50.7109 Q25 53.0312 30.1719 53.0312 Q35.9375 53.0312 39.625 50.6406 Q43.3125 48.25 44.8281 43.9531 Q50.9844 53.0312 60.8438 53.0312 Q68.5625 53.0312 72.7109 48.7578 Q76.8594 44.4844 76.8594 35.5938 L76.8594 0 L68.1094 0 L68.1094 32.6719 Q68.1094 37.9375 67.2578 40.2578 Q66.4062 42.5781 64.1641 43.9922 Q61.9219 45.4062 58.8906 45.4062 Q53.4219 45.4062 49.8047 41.7734 Q46.1875 38.1406 46.1875 30.125 L46.1875 0 L37.4062 0 L37.4062 33.6875 Q37.4062 39.5469 35.2578 42.4766 Q33.1094 45.4062 28.2188 45.4062 Q24.5156 45.4062 21.3672 43.4531 Q18.2188 41.5 16.7969 37.7422 Q15.375 33.9844 15.375 26.9062 L15.375 0 L6.5938 0 Z"
        /><glyph unicode="(" horiz-adv-x="33.30078" d="M23.3906 -21.0469 Q16.1094 -11.8594 11.0859 0.4453 Q6.0625 12.75 6.0625 25.9219 Q6.0625 37.5469 9.8125 48.1875 Q14.2031 60.5469 23.3906 72.7969 L29.6875 72.7969 Q23.7812 62.6406 21.875 58.2969 Q18.8906 51.5625 17.1875 44.2344 Q15.0938 35.1094 15.0938 25.875 Q15.0938 2.3906 29.6875 -21.0469 L23.3906 -21.0469 Z"
        /><glyph unicode=" " horiz-adv-x="27.783203" d=""
        /><glyph unicode="h" horiz-adv-x="55.615234" d="M6.5938 0 L6.5938 71.5781 L15.375 71.5781 L15.375 45.9062 Q21.5312 53.0312 30.9062 53.0312 Q36.6719 53.0312 40.9219 50.7578 Q45.1719 48.4844 47 44.4844 Q48.8281 40.4844 48.8281 32.8594 L48.8281 0 L40.0469 0 L40.0469 32.8594 Q40.0469 39.4531 37.1875 42.4531 Q34.3281 45.4531 29.1094 45.4531 Q25.2031 45.4531 21.7578 43.4297 Q18.3125 41.4062 16.8438 37.9375 Q15.375 34.4688 15.375 28.375 L15.375 0 L6.5938 0 Z"
        /><glyph unicode="t" horiz-adv-x="27.783203" d="M25.7812 7.8594 L27.0469 0.0938 Q23.3438 -0.6875 20.4062 -0.6875 Q15.625 -0.6875 12.9922 0.8281 Q10.3594 2.3438 9.2812 4.8125 Q8.2031 7.2812 8.2031 15.1875 L8.2031 45.0156 L1.7656 45.0156 L1.7656 51.8594 L8.2031 51.8594 L8.2031 64.7031 L16.9375 69.9688 L16.9375 51.8594 L25.7812 51.8594 L25.7812 45.0156 L16.9375 45.0156 L16.9375 14.7031 Q16.9375 10.9375 17.4062 9.8672 Q17.875 8.7969 18.9219 8.1562 Q19.9688 7.5156 21.9219 7.5156 Q23.3906 7.5156 25.7812 7.8594 Z"
        /><glyph unicode="g" horiz-adv-x="55.615234" d="M4.9844 -4.2969 L13.5312 -5.5625 Q14.0625 -9.5156 16.5 -11.3281 Q19.7812 -13.7656 25.4375 -13.7656 Q31.5469 -13.7656 34.8672 -11.3281 Q38.1875 -8.8906 39.3594 -4.5 Q40.0469 -1.8125 39.9844 6.7812 Q34.2344 0 25.6406 0 Q14.9375 0 9.0781 7.7188 Q3.2188 15.4375 3.2188 26.2188 Q3.2188 33.6406 5.9062 39.9141 Q8.5938 46.1875 13.6953 49.6094 Q18.7969 53.0312 25.6875 53.0312 Q34.8594 53.0312 40.8281 45.6094 L40.8281 51.8594 L48.9219 51.8594 L48.9219 7.0312 Q48.9219 -5.0781 46.4609 -10.1328 Q44 -15.1875 38.6484 -18.1172 Q33.2969 -21.0469 25.4844 -21.0469 Q16.2188 -21.0469 10.5 -16.875 Q4.7812 -12.7031 4.9844 -4.2969 ZM12.25 26.8594 Q12.25 16.6562 16.3047 11.9688 Q20.3594 7.2812 26.4688 7.2812 Q32.5156 7.2812 36.6172 11.9453 Q40.7188 16.6094 40.7188 26.5625 Q40.7188 36.0781 36.5 40.9141 Q32.2812 45.75 26.3125 45.75 Q20.4531 45.75 16.3516 40.9922 Q12.25 36.2344 12.25 26.8594 Z"
        /><glyph unicode="n" horiz-adv-x="55.615234" d="M6.5938 0 L6.5938 51.8594 L14.5 51.8594 L14.5 44.4844 Q20.2188 53.0312 31 53.0312 Q35.6875 53.0312 39.625 51.3438 Q43.5625 49.6562 45.5156 46.9219 Q47.4688 44.1875 48.25 40.4375 Q48.7344 37.9844 48.7344 31.8906 L48.7344 0 L39.9375 0 L39.9375 31.5469 Q39.9375 36.9219 38.9141 39.5781 Q37.8906 42.2344 35.2812 43.8203 Q32.6719 45.4062 29.1562 45.4062 Q23.5312 45.4062 19.4531 41.8438 Q15.375 38.2812 15.375 28.3281 L15.375 0 L6.5938 0 Z"
        /><glyph unicode="l" horiz-adv-x="22.216797" d="M6.3906 0 L6.3906 71.5781 L15.1875 71.5781 L15.1875 0 L6.3906 0 Z"
        /><glyph unicode="e" horiz-adv-x="55.615234" d="M42.0938 16.7031 L51.1719 15.5781 Q49.0312 7.625 43.2188 3.2266 Q37.4062 -1.1719 28.375 -1.1719 Q17 -1.1719 10.3281 5.8359 Q3.6562 12.8438 3.6562 25.4844 Q3.6562 38.5781 10.3984 45.8047 Q17.1406 53.0312 27.875 53.0312 Q38.2812 53.0312 44.875 45.9531 Q51.4688 38.875 51.4688 26.0312 Q51.4688 25.25 51.4219 23.6875 L12.75 23.6875 Q13.2344 15.1406 17.5781 10.6016 Q21.9219 6.0625 28.4219 6.0625 Q33.25 6.0625 36.6719 8.6016 Q40.0938 11.1406 42.0938 16.7031 ZM13.2344 30.9062 L42.1875 30.9062 Q41.6094 37.4531 38.875 40.7188 Q34.6719 45.7969 27.9844 45.7969 Q21.9219 45.7969 17.7969 41.75 Q13.6719 37.7031 13.2344 30.9062 Z"
        /><glyph unicode="v" horiz-adv-x="50.0" d="M21 0 L1.2656 51.8594 L10.5469 51.8594 L21.6875 20.7969 Q23.4844 15.7656 25 10.3594 Q26.1719 14.4531 28.2656 20.2188 L39.7969 51.8594 L48.8281 51.8594 L29.2031 0 L21 0 Z"
        /><glyph unicode="a" horiz-adv-x="55.615234" d="M40.4375 6.3906 Q35.5469 2.25 31.0312 0.5391 Q26.5156 -1.1719 21.3438 -1.1719 Q12.7969 -1.1719 8.2031 3 Q3.6094 7.1719 3.6094 13.6719 Q3.6094 17.4844 5.3438 20.6328 Q7.0781 23.7812 9.8906 25.6875 Q12.7031 27.5938 16.2188 28.5625 Q18.7969 29.25 24.0312 29.8906 Q34.6719 31.1562 39.7031 32.9062 Q39.75 34.7188 39.75 35.2031 Q39.75 40.5781 37.25 42.7812 Q33.8906 45.75 27.25 45.75 Q21.0469 45.75 18.0938 43.5781 Q15.1406 41.4062 13.7188 35.8906 L5.125 37.0625 Q6.2969 42.5781 8.9844 45.9688 Q11.6719 49.3594 16.75 51.1953 Q21.8281 53.0312 28.5156 53.0312 Q35.1562 53.0312 39.3047 51.4688 Q43.4531 49.9062 45.4062 47.5391 Q47.3594 45.1719 48.1406 41.5469 Q48.5781 39.3125 48.5781 33.4531 L48.5781 21.7344 Q48.5781 9.4688 49.1406 6.2266 Q49.7031 2.9844 51.375 0 L42.1875 0 Q40.8281 2.7344 40.4375 6.3906 ZM39.7031 26.0312 Q34.9062 24.0781 25.3438 22.7031 Q19.9219 21.9219 17.6797 20.9453 Q15.4375 19.9688 14.2109 18.0938 Q12.9844 16.2188 12.9844 13.9219 Q12.9844 10.4062 15.6484 8.0625 Q18.3125 5.7188 23.4375 5.7188 Q28.5156 5.7188 32.4688 7.9375 Q36.4219 10.1562 38.2812 14.0156 Q39.7031 17 39.7031 22.7969 L39.7031 26.0312 Z"
        /><glyph unicode="W" horiz-adv-x="94.384766" d="M20.2188 0 L1.2188 71.5781 L10.9375 71.5781 L21.8281 24.6562 Q23.5781 17.2812 24.8594 10.0156 Q27.5938 21.4844 28.0781 23.25 L41.7031 71.5781 L53.125 71.5781 L63.375 35.3594 Q67.2344 21.875 68.9531 10.0156 Q70.3125 16.7969 72.5156 25.5938 L83.7344 71.5781 L93.2656 71.5781 L73.6406 0 L64.5 0 L49.4219 54.5469 Q47.5156 61.375 47.1719 62.9375 Q46.0469 58.0156 45.0625 54.5469 L29.8906 0 L20.2188 0 Z"
        /><glyph unicode="2" horiz-adv-x="55.615234" d="M50.3438 8.4531 L50.3438 0 L3.0312 0 Q2.9375 3.1719 4.0469 6.1094 Q5.8594 10.9375 9.8359 15.625 Q13.8125 20.3125 21.3438 26.4688 Q33.0156 36.0312 37.1172 41.625 Q41.2188 47.2188 41.2188 52.2031 Q41.2188 57.4219 37.4766 61.0078 Q33.7344 64.5938 27.7344 64.5938 Q21.3906 64.5938 17.5781 60.7891 Q13.7656 56.9844 13.7188 50.25 L4.6875 51.1719 Q5.6094 61.2812 11.6641 66.5781 Q17.7188 71.875 27.9375 71.875 Q38.2344 71.875 44.2422 66.1641 Q50.25 60.4531 50.25 52 Q50.25 47.7031 48.4922 43.5547 Q46.7344 39.4062 42.6562 34.8125 Q38.5781 30.2188 29.1094 22.2188 Q21.1875 15.5781 18.9453 13.2109 Q16.7031 10.8438 15.2344 8.4531 L50.3438 8.4531 Z"
        /><glyph unicode="." horiz-adv-x="27.783203" d="M9.0781 0 L9.0781 10.0156 L19.0938 10.0156 L19.0938 0 L9.0781 0 Z"
        /><glyph unicode="1" horiz-adv-x="55.615234" d="M37.25 0 L28.4688 0 L28.4688 56 Q25.2969 52.9844 20.1406 49.9531 Q14.9844 46.9219 10.8906 45.4062 L10.8906 53.9062 Q18.2656 57.375 23.7812 62.3047 Q29.2969 67.2344 31.5938 71.875 L37.25 71.875 L37.25 0 Z"
        /><glyph unicode="y" horiz-adv-x="50.0" d="M6.2031 -19.9688 L5.2188 -11.7188 Q8.1094 -12.5 10.25 -12.5 Q13.1875 -12.5 14.9453 -11.5234 Q16.7031 -10.5469 17.8281 -8.7969 Q18.6562 -7.4688 20.5156 -2.25 Q20.75 -1.5156 21.2969 -0.0938 L1.6094 51.8594 L11.0781 51.8594 L21.875 21.8281 Q23.9688 16.1094 25.6406 9.8125 Q27.1562 15.875 29.25 21.625 L40.3281 51.8594 L49.125 51.8594 L29.3906 -0.875 Q26.2188 -9.4219 24.4688 -12.6406 Q22.125 -17 19.0938 -19.0234 Q16.0625 -21.0469 11.8594 -21.0469 Q9.3281 -21.0469 6.2031 -19.9688 Z"
        /><glyph unicode="s" horiz-adv-x="50.0" d="M3.0781 15.4844 L11.7656 16.8438 Q12.5 11.625 15.8438 8.8438 Q19.1875 6.0625 25.2031 6.0625 Q31.25 6.0625 34.1797 8.5234 Q37.1094 10.9844 37.1094 14.3125 Q37.1094 17.2812 34.5156 19 Q32.7188 20.1719 25.5312 21.9688 Q15.875 24.4219 12.1406 26.2031 Q8.4062 27.9844 6.4766 31.1328 Q4.5469 34.2812 4.5469 38.0938 Q4.5469 41.5469 6.1328 44.5078 Q7.7188 47.4688 10.4531 49.4219 Q12.5 50.9219 16.0391 51.9766 Q19.5781 53.0312 23.6406 53.0312 Q29.7344 53.0312 34.3516 51.2734 Q38.9688 49.5156 41.1641 46.5078 Q43.3594 43.5 44.1875 38.4844 L35.5938 37.3125 Q35.0156 41.3125 32.2031 43.5547 Q29.3906 45.7969 24.2656 45.7969 Q18.2188 45.7969 15.625 43.7969 Q13.0312 41.7969 13.0312 39.1094 Q13.0312 37.4062 14.1094 36.0312 Q15.1875 34.625 17.4844 33.6875 Q18.7969 33.2031 25.25 31.4531 Q34.5781 28.9531 38.2578 27.3672 Q41.9375 25.7812 44.0391 22.7578 Q46.1406 19.7344 46.1406 15.2344 Q46.1406 10.8438 43.5781 6.9609 Q41.0156 3.0781 36.1797 0.9531 Q31.3438 -1.1719 25.25 -1.1719 Q15.1406 -1.1719 9.8438 3.0312 Q4.5469 7.2344 3.0781 15.4844 Z"
        /><glyph unicode="d" horiz-adv-x="55.615234" d="M40.2344 0 L40.2344 6.5469 Q35.2969 -1.1719 25.7344 -1.1719 Q19.5312 -1.1719 14.3281 2.25 Q9.125 5.6719 6.2734 11.7969 Q3.4219 17.9219 3.4219 25.875 Q3.4219 33.6406 6.0078 39.9688 Q8.5938 46.2969 13.7734 49.6641 Q18.9531 53.0312 25.3438 53.0312 Q30.0312 53.0312 33.6953 51.0547 Q37.3594 49.0781 39.6562 45.9062 L39.6562 71.5781 L48.3906 71.5781 L48.3906 0 L40.2344 0 ZM12.4531 25.875 Q12.4531 15.9219 16.6484 10.9922 Q20.8438 6.0625 26.5625 6.0625 Q32.3281 6.0625 36.3516 10.7734 Q40.375 15.4844 40.375 25.1406 Q40.375 35.7969 36.2734 40.7734 Q32.1719 45.75 26.1719 45.75 Q20.3125 45.75 16.3828 40.9688 Q12.4531 36.1875 12.4531 25.875 Z"
        /><glyph unicode="z" horiz-adv-x="50.0" d="M1.9531 0 L1.9531 7.125 L34.9688 45.0156 Q29.3438 44.7344 25.0469 44.7344 L3.9062 44.7344 L3.9062 51.8594 L46.2969 51.8594 L46.2969 46.0469 L18.2188 13.1406 L12.7969 7.125 Q18.7031 7.5625 23.875 7.5625 L47.8594 7.5625 L47.8594 0 L1.9531 0 Z"
        /><glyph unicode="i" horiz-adv-x="22.216797" d="M6.6406 61.4688 L6.6406 71.5781 L15.4375 71.5781 L15.4375 61.4688 L6.6406 61.4688 ZM6.6406 0 L6.6406 51.8594 L15.4375 51.8594 L15.4375 0 L6.6406 0 Z"
        /><glyph unicode="r" horiz-adv-x="33.30078" d="M6.5 0 L6.5 51.8594 L14.4062 51.8594 L14.4062 44 Q17.4375 49.5156 20 51.2734 Q22.5625 53.0312 25.6406 53.0312 Q30.0781 53.0312 34.6719 50.2031 L31.6406 42.0469 Q28.4219 43.9531 25.2031 43.9531 Q22.3125 43.9531 20.0156 42.2188 Q17.7188 40.4844 16.75 37.4062 Q15.2812 32.7188 15.2812 27.1562 L15.2812 0 L6.5 0 Z"
        /><glyph unicode="o" horiz-adv-x="55.615234" d="M3.3281 25.9219 Q3.3281 40.3281 11.3281 47.2656 Q18.0156 53.0312 27.6406 53.0312 Q38.3281 53.0312 45.1172 46.0234 Q51.9062 39.0156 51.9062 26.6562 Q51.9062 16.6562 48.9062 10.9141 Q45.9062 5.1719 40.1641 2 Q34.4219 -1.1719 27.6406 -1.1719 Q16.75 -1.1719 10.0391 5.8125 Q3.3281 12.7969 3.3281 25.9219 ZM12.3594 25.9219 Q12.3594 15.9688 16.7031 11.0156 Q21.0469 6.0625 27.6406 6.0625 Q34.1875 6.0625 38.5312 11.0391 Q42.875 16.0156 42.875 26.2188 Q42.875 35.8438 38.5 40.7969 Q34.125 45.75 27.6406 45.75 Q21.0469 45.75 16.7031 40.8203 Q12.3594 35.8906 12.3594 25.9219 Z"
        /><glyph unicode="N" horiz-adv-x="72.2168" d="M7.625 0 L7.625 71.5781 L17.3281 71.5781 L54.9375 15.375 L54.9375 71.5781 L64.0156 71.5781 L64.0156 0 L54.2969 0 L16.7031 56.25 L16.7031 0 L7.625 0 Z"
        /><glyph unicode="f" horiz-adv-x="27.783203" d="M8.6875 0 L8.6875 45.0156 L0.9219 45.0156 L0.9219 51.8594 L8.6875 51.8594 L8.6875 57.375 Q8.6875 62.5938 9.625 65.1406 Q10.8906 68.5625 14.0859 70.6797 Q17.2812 72.7969 23.0469 72.7969 Q26.7656 72.7969 31.25 71.9219 L29.9375 64.2656 Q27.2031 64.75 24.75 64.75 Q20.75 64.75 19.0938 63.0391 Q17.4375 61.3281 17.4375 56.6406 L17.4375 51.8594 L27.5469 51.8594 L27.5469 45.0156 L17.4375 45.0156 L17.4375 0 L8.6875 0 Z"
        /><glyph unicode="L" horiz-adv-x="55.615234" d="M7.3281 0 L7.3281 71.5781 L16.7969 71.5781 L16.7969 8.4531 L52.0469 8.4531 L52.0469 0 L7.3281 0 Z"
        /><glyph unicode="k" horiz-adv-x="50.0" d="M6.6406 0 L6.6406 71.5781 L15.4375 71.5781 L15.4375 30.7656 L36.2344 51.8594 L47.6094 51.8594 L27.7812 32.625 L49.6094 0 L38.7656 0 L21.625 26.5156 L15.4375 20.5625 L15.4375 0 L6.6406 0 Z"
        /><glyph unicode="u" horiz-adv-x="55.615234" d="M40.5781 0 L40.5781 7.625 Q34.5156 -1.1719 24.125 -1.1719 Q19.5312 -1.1719 15.5547 0.5859 Q11.5781 2.3438 9.6484 5.0078 Q7.7188 7.6719 6.9375 11.5312 Q6.3906 14.1094 6.3906 19.7344 L6.3906 51.8594 L15.1875 51.8594 L15.1875 23.0938 Q15.1875 16.2188 15.7188 13.8125 Q16.5469 10.3594 19.2344 8.375 Q21.9219 6.3906 25.875 6.3906 Q29.8281 6.3906 33.2969 8.4219 Q36.7656 10.4531 38.2109 13.9453 Q39.6562 17.4375 39.6562 24.0781 L39.6562 51.8594 L48.4375 51.8594 L48.4375 0 L40.5781 0 Z"
        /><glyph unicode="b" horiz-adv-x="55.615234" d="M14.7031 0 L6.5469 0 L6.5469 71.5781 L15.3281 71.5781 L15.3281 46.0469 Q20.9062 53.0312 29.5469 53.0312 Q34.3281 53.0312 38.6016 51.1016 Q42.875 49.1719 45.6328 45.6797 Q48.3906 42.1875 49.9531 37.2578 Q51.5156 32.3281 51.5156 26.7031 Q51.5156 13.375 44.9219 6.1016 Q38.3281 -1.1719 29.1094 -1.1719 Q19.9219 -1.1719 14.7031 6.5 L14.7031 0 ZM14.5938 26.3125 Q14.5938 17 17.1406 12.8438 Q21.2969 6.0625 28.375 6.0625 Q34.125 6.0625 38.3281 11.0625 Q42.5312 16.0625 42.5312 25.9844 Q42.5312 36.1406 38.5 40.9688 Q34.4688 45.7969 28.7656 45.7969 Q23 45.7969 18.7969 40.7969 Q14.5938 35.7969 14.5938 26.3125 Z"
      /></font
    ></defs
    ><g style="fill:white; stroke:white;"
    ><rect x="0" y="0" width="560" style="clip-path:url(#clipPath1); stroke:none;" height="420"
    /></g
    ><g style="fill:white; text-rendering:optimizeSpeed; color-rendering:optimizeSpeed; image-rendering:optimizeSpeed; shape-rendering:crispEdges; color-interpolation:sRGB; stroke:white;"
    ><rect x="0" width="560" height="420" y="0" style="stroke:none;"
      /><path style="stroke:none;" d="M73 358 L507 358 L507 31 L73 31 Z"
    /></g
    ><g style="fill:rgb(38,38,38); text-rendering:geometricPrecision; color-rendering:optimizeQuality; image-rendering:optimizeQuality; stroke-linejoin:round; color-interpolation:linearRGB; stroke:rgb(38,38,38); stroke-width:2.6667;"
    ><line y2="358" style="fill:none;" x1="73" x2="507" y1="358"
      /><line y2="31" style="fill:none;" x1="73" x2="507" y1="31"
      /><line y2="353.66" style="fill:none;" x1="73" x2="73" y1="358"
      /><line y2="353.66" style="fill:none;" x1="159.8" x2="159.8" y1="358"
      /><line y2="353.66" style="fill:none;" x1="246.6" x2="246.6" y1="358"
      /><line y2="353.66" style="fill:none;" x1="333.4" x2="333.4" y1="358"
      /><line y2="353.66" style="fill:none;" x1="420.2" x2="420.2" y1="358"
      /><line y2="353.66" style="fill:none;" x1="507" x2="507" y1="358"
      /><line y2="35.34" style="fill:none;" x1="73" x2="73" y1="31"
      /><line y2="35.34" style="fill:none;" x1="159.8" x2="159.8" y1="31"
      /><line y2="35.34" style="fill:none;" x1="246.6" x2="246.6" y1="31"
      /><line y2="35.34" style="fill:none;" x1="333.4" x2="333.4" y1="31"
      /><line y2="35.34" style="fill:none;" x1="420.2" x2="420.2" y1="31"
      /><line y2="35.34" style="fill:none;" x1="507" x2="507" y1="31"
    /></g
    ><g transform="translate(73,364.9333)" style="font-size:21px; fill:rgb(38,38,38); text-rendering:geometricPrecision; color-rendering:optimizeQuality; image-rendering:optimizeQuality; font-family:sans-serif; color-interpolation:linearRGB; stroke:rgb(38,38,38);"
    ><text x="-18" xml:space="preserve" y="22" style="stroke:none;"
      >400</text
    ></g
    ><g transform="translate(159.8,364.9333)" style="font-size:21px; fill:rgb(38,38,38); text-rendering:geometricPrecision; color-rendering:optimizeQuality; image-rendering:optimizeQuality; font-family:sans-serif; color-interpolation:linearRGB; stroke:rgb(38,38,38);"
    ><text x="-18" xml:space="preserve" y="22" style="stroke:none;"
      >500</text
    ></g
    ><g transform="translate(246.6,364.9333)" style="font-size:21px; fill:rgb(38,38,38); text-rendering:geometricPrecision; color-rendering:optimizeQuality; image-rendering:optimizeQuality; font-family:sans-serif; color-interpolation:linearRGB; stroke:rgb(38,38,38);"
    ><text x="-18" xml:space="preserve" y="22" style="stroke:none;"
      >600</text
    ></g
    ><g transform="translate(333.4,364.9333)" style="font-size:21px; fill:rgb(38,38,38); text-rendering:geometricPrecision; color-rendering:optimizeQuality; image-rendering:optimizeQuality; font-family:sans-serif; color-interpolation:linearRGB; stroke:rgb(38,38,38);"
    ><text x="-18" xml:space="preserve" y="22" style="stroke:none;"
      >700</text
    ></g
    ><g transform="translate(420.2,364.9333)" style="font-size:21px; fill:rgb(38,38,38); text-rendering:geometricPrecision; color-rendering:optimizeQuality; image-rendering:optimizeQuality; font-family:sans-serif; color-interpolation:linearRGB; stroke:rgb(38,38,38);"
    ><text x="-18" xml:space="preserve" y="22" style="stroke:none;"
      >800</text
    ></g
    ><g transform="translate(507,364.9333)" style="font-size:21px; fill:rgb(38,38,38); text-rendering:geometricPrecision; color-rendering:optimizeQuality; image-rendering:optimizeQuality; font-family:sans-serif; color-interpolation:linearRGB; stroke:rgb(38,38,38);"
    ><text x="-18" xml:space="preserve" y="22" style="stroke:none;"
      >900</text
    ></g
    ><g transform="translate(290.0002,393)" style="font-size:21px; fill:rgb(38,38,38); text-rendering:geometricPrecision; color-rendering:optimizeQuality; image-rendering:optimizeQuality; font-family:sans-serif; color-interpolation:linearRGB; stroke:rgb(38,38,38);"
    ><text x="-80" xml:space="preserve" y="22" style="stroke:none;"
      >Wavelength (nm)</text
    ></g
    ><g style="fill:rgb(38,38,38); text-rendering:geometricPrecision; color-rendering:optimizeQuality; image-rendering:optimizeQuality; stroke-linejoin:round; color-interpolation:linearRGB; stroke:rgb(38,38,38); stroke-width:2.6667;"
    ><line y2="31" style="fill:none;" x1="73" x2="73" y1="358"
      /><line y2="31" style="fill:none;" x1="507" x2="507" y1="358"
      /><line y2="358" style="fill:none;" x1="73" x2="77.34" y1="358"
      /><line y2="295.7143" style="fill:none;" x1="73" x2="77.34" y1="295.7143"
      /><line y2="233.4286" style="fill:none;" x1="73" x2="77.34" y1="233.4286"
      /><line y2="171.1429" style="fill:none;" x1="73" x2="77.34" y1="171.1429"
      /><line y2="108.8571" style="fill:none;" x1="73" x2="77.34" y1="108.8571"
      /><line y2="46.5714" style="fill:none;" x1="73" x2="77.34" y1="46.5714"
      /><line y2="358" style="fill:none;" x1="507" x2="502.66" y1="358"
      /><line y2="295.7143" style="fill:none;" x1="507" x2="502.66" y1="295.7143"
      /><line y2="233.4286" style="fill:none;" x1="507" x2="502.66" y1="233.4286"
      /><line y2="171.1429" style="fill:none;" x1="507" x2="502.66" y1="171.1429"
      /><line y2="108.8571" style="fill:none;" x1="507" x2="502.66" y1="108.8571"
      /><line y2="46.5714" style="fill:none;" x1="507" x2="502.66" y1="46.5714"
    /></g
    ><g transform="translate(66.0667,358)" style="font-size:21px; fill:rgb(38,38,38); text-rendering:geometricPrecision; color-rendering:optimizeQuality; image-rendering:optimizeQuality; font-family:sans-serif; color-interpolation:linearRGB; stroke:rgb(38,38,38);"
    ><text x="-12" xml:space="preserve" y="8.5" style="stroke:none;"
      >0</text
    ></g
    ><g transform="translate(66.0667,295.7143)" style="font-size:21px; fill:rgb(38,38,38); text-rendering:geometricPrecision; color-rendering:optimizeQuality; image-rendering:optimizeQuality; font-family:sans-serif; color-interpolation:linearRGB; stroke:rgb(38,38,38);"
    ><text x="-30" xml:space="preserve" y="8.5" style="stroke:none;"
      >0.2</text
    ></g
    ><g transform="translate(66.0667,233.4286)" style="font-size:21px; fill:rgb(38,38,38); text-rendering:geometricPrecision; color-rendering:optimizeQuality; image-rendering:optimizeQuality; font-family:sans-serif; color-interpolation:linearRGB; stroke:rgb(38,38,38);"
    ><text x="-30" xml:space="preserve" y="8.5" style="stroke:none;"
      >0.4</text
    ></g
    ><g transform="translate(66.0667,171.1429)" style="font-size:21px; fill:rgb(38,38,38); text-rendering:geometricPrecision; color-rendering:optimizeQuality; image-rendering:optimizeQuality; font-family:sans-serif; color-interpolation:linearRGB; stroke:rgb(38,38,38);"
    ><text x="-30" xml:space="preserve" y="8.5" style="stroke:none;"
      >0.6</text
    ></g
    ><g transform="translate(66.0667,108.8571)" style="font-size:21px; fill:rgb(38,38,38); text-rendering:geometricPrecision; color-rendering:optimizeQuality; image-rendering:optimizeQuality; font-family:sans-serif; color-interpolation:linearRGB; stroke:rgb(38,38,38);"
    ><text x="-30" xml:space="preserve" y="8.5" style="stroke:none;"
      >0.8</text
    ></g
    ><g transform="translate(66.0667,46.5714)" style="font-size:21px; fill:rgb(38,38,38); text-rendering:geometricPrecision; color-rendering:optimizeQuality; image-rendering:optimizeQuality; font-family:sans-serif; color-interpolation:linearRGB; stroke:rgb(38,38,38);"
    ><text x="-12" xml:space="preserve" y="8.5" style="stroke:none;"
      >1</text
    ></g
    ><g transform="translate(32.0667,194.4999) rotate(-90)" style="font-size:21px; fill:rgb(38,38,38); text-rendering:geometricPrecision; color-rendering:optimizeQuality; image-rendering:optimizeQuality; font-family:sans-serif; color-interpolation:linearRGB; stroke:rgb(38,38,38);"
    ><text x="-97.5" xml:space="preserve" y="-5" style="stroke:none;"
      >Normalized intenstiy </text
    ></g
    ><g style="stroke-linecap:butt; fill:aqua; text-rendering:geometricPrecision; color-rendering:optimizeQuality; image-rendering:optimizeQuality; stroke-linejoin:round; color-interpolation:linearRGB; stroke:aqua; stroke-width:2.6667;"
    ><path d="M290.1927 349.3363 L290.4192 351.4323 L290.6467 350.8757 L290.8732 347.5683 L291.1006 350.7729 L291.3272 349.5158 L291.5546 349.1075 L291.7811 349.9121 L292.0086 350.3838 L292.2351 351.5099 L292.4616 349.5996 L292.6891 349.0005 L292.9156 349.7129 L293.143 351.4957 L293.3696 349.0304 L293.597 350.4432 L293.8236 348.6317 L294.051 347.9305 L294.2775 348.8557 L294.5049 350.7923 L294.7314 350.2509 L294.9589 351.4461 L295.1854 348.8266 L295.4129 349.1419 L295.6394 350.2259 L295.8668 349.6715 L296.0934 347.382 L296.3199 351.6669 L296.5474 348.1523 L296.7739 348.0452 L297.0013 350.796 L297.2278 349.1347 L297.4552 346.7007 L297.6818 351.6093 L297.9092 347.8985 L298.1357 348.2923 L298.3623 349.6714 L298.5897 350.0062 L298.8163 350.8078 L299.0437 349.5933 L299.2702 347.9904 L299.4977 348.9358 L299.7242 346.0472 L299.9507 348.8472 L300.1782 349.9165 L300.4047 346.5235 L300.6321 347.8216 L300.8587 346.3481 L301.0852 348.3933 L301.3127 347.3987 L301.5392 347.0987 L301.7666 346.6566 L301.9932 347.3684 L302.2197 347.9695 L302.4471 347.1905 L302.6737 346.5864 L302.9011 346.9897 L303.1277 346.2262 L303.3542 345.6615 L303.5816 345.8679 L303.8082 344.6915 L304.0356 347.4004 L304.2621 346.6505 L304.4887 347.2641 L304.7161 345.2308 L304.9427 347.2608 L305.1692 346.9294 L305.3966 345.7653 L305.6231 347.012 L305.8505 346.6913 L306.0771 346.7144 L306.3036 346.4621 L306.531 347.0497 L306.7576 346.4559 L306.9842 345.0877 L307.2115 345.2093 L307.4381 345.2403 L307.6647 345.9971 L307.8921 344.2199 L308.1187 347.4543 L308.3452 345.3558 L308.5726 344.4677 L308.7992 344.2214 L309.0257 345.2443 L309.2531 341.8271 L309.4797 345.7193 L309.7062 343.6375 L309.9337 341.7526 L310.1602 344.2623 L310.3867 340.5895 L310.6142 341.04 L310.8407 342.7896 L311.0672 342.3596 L311.2946 344.1784 L311.5212 342.8034 L311.7477 343.293 L311.9743 344.6008 L312.2017 341.5067 L312.4283 342.3751 L312.6548 341.9652 L312.8822 339.8532 L313.1088 342.526 L313.3353 343.5417 L313.5627 342.735 L313.7892 342.0135 L314.0158 343.0266 L314.2424 344.6374 L314.4698 344.6451 L314.6964 341.5577 L314.9229 341.1198 L315.1503 342.1011 L315.3769 342.6852 L315.6034 339.1672 L315.8299 342.6881 L316.0574 341.965 L316.2839 339.0465 L316.5104 340.7579 L316.737 340.0888 L316.9644 337.8925 L317.1909 341.9996 L317.4175 342.1241 L317.6441 343.6943 L317.8715 337.89 L318.098 338.4707 L318.3246 337.1074 L318.5511 337.968 L318.7786 338.0155 L319.0051 340.5238 L319.2316 337.5705 L319.4582 341.9323 L319.6856 339.5903 L319.9121 340.8027 L320.1387 339.5415 L320.3652 338.6627 L320.5918 335.5893 L320.8192 339.0932 L321.0458 339.4735 L321.2723 336.6246 L321.4988 336.7226 L321.7263 337.3734 L321.9528 336.7531 L322.1794 340.2393 L322.4059 337.2938 L322.6324 336.2317 L322.8599 334.4111 L323.0864 337.3019 L323.313 347.1198 L323.5395 341.9892 L323.7661 338.037 L323.9935 335.9712 L324.22 334.5835 L324.4466 335.0625 L324.6731 336.274 L324.8997 335.8057 L325.1263 333.5798 L325.3536 337.0479 L325.5802 335.6088 L325.8068 334.6436 L326.0333 330.9468 L326.2598 333.3758 L326.4864 333.6838 L326.7138 330.2806 L326.9403 333.8916 L327.1669 332.6383 L327.3935 332.5726 L327.62 335.7528 L327.8465 333.4607 L328.074 332.2344 L328.3005 332.0572 L328.527 332.7122 L328.7536 330.7472 L328.9802 331.2822 L329.2067 330.2232 L329.4332 331.5263 L329.6607 330.8306 L329.8872 329.9499 L330.1137 334.5472 L330.3403 326.5402 L330.5669 332.7492 L330.7934 330.7208 L331.0199 329.4792 L331.2465 327.8148 L331.4739 328.4544 L331.7004 330.2003 L331.927 327.9865 L332.1536 332.0781 L332.3801 326.5041 L332.6067 326.7192 L332.8332 328.5099 L333.0597 327.3563 L333.2863 325.8813 L333.5137 326.4114 L333.7403 325.0634 L333.9668 326.4699 L334.1934 328.2155 L334.4199 327.3652 L334.6464 325.0627 L334.873 324.2326 L335.0995 325.3543 L335.3261 324.3547 L335.5526 322.8572 L335.7792 323.8859 L336.0066 323.3922 L336.2331 325.0879 L336.4597 326.563 L336.6862 326.7922 L336.9128 321.5873 L337.1393 322.2911 L337.3659 319.8143 L337.5925 325.7136 L337.819 318.1703 L338.0455 322.8326 L338.2721 319.1391 L338.4987 318.5251 L338.7252 318.1432 L338.9517 317.3469 L339.1783 320.1613 L339.4048 317.0462 L339.6314 317.6108 L339.8579 316.8158 L340.0854 319.0524 L340.3119 314.0566 L340.5384 315.3179 L340.765 319.4758 L340.9915 319.9381 L341.2181 313.1566 L341.4446 312.8901 L341.6712 311.7482 L341.8977 315.6119 L342.1243 311.7585 L342.3508 312.0784 L342.5774 319.6007 L342.8039 317.2101 L343.0304 321.9315 L343.257 318.7505 L343.4836 309.8219 L343.7101 316.3033 L343.9366 316.1434 L344.1632 312.6922 L344.3898 310.5919 L344.6163 309.9822 L344.8428 310.5275 L345.0694 307.8742 L345.296 312.9023 L345.5225 324.2262 L345.749 310.4579 L345.9756 307.5189 L346.2021 313.244 L346.4287 311.4432 L346.6552 307.9653 L346.8818 310.9677 L347.1083 307.6445 L347.3349 305.709 L347.5614 310.7878 L347.7871 299.2653 L348.0136 305.5935 L348.2402 300.7511 L348.4667 295.4527 L348.6933 307.3815 L348.9198 305.4087 L349.1464 302.9383 L349.3729 303.905 L349.5995 300.3664 L349.826 302.4409 L350.0526 306.7292 L350.2791 304.5215 L350.5056 295.5403 L350.7322 294.8991 L350.9588 302.2678 L351.1853 293.1719 L351.4118 298.9244 L351.6384 293.6797 L351.8641 294.7893 L352.0907 294.7786 L352.3172 297.1658 L352.5437 293.6338 L352.7703 292.5302 L352.9969 295.307 L353.2234 288.4292 L353.4499 283.3324 L353.6765 283.0751 L353.903 281.3169 L354.1296 285.0998 L354.3561 286.4847 L354.5818 284.3336 L354.8083 284.1873 L355.0349 286.2767 L355.2614 291.1255 L355.488 276.8087 L355.7145 283.1389 L355.9411 286.6459 L356.1676 280.4125 L356.3942 294.7638 L356.6198 288.1942 L356.8464 281.0067 L357.073 274.3779 L357.2995 269.5599 L357.526 271.0934 L357.7526 274.4182 L357.9792 276.5443 L358.2057 274.5722 L358.4314 270.9911 L358.6579 276.3592 L358.8845 273.2079 L359.111 282.7476 L359.3376 283.3801 L359.5641 270.9903 L359.7907 279.7795 L360.0164 279.3472 L360.2429 265.7092 L360.4694 267.8073 L360.696 262.6497 L360.9225 258.75 L361.1491 258.6534 L361.3748 263.4757 L361.6013 262.6478 L361.8279 257.3097 L362.0544 256.4389 L362.281 254.8307 L362.5075 264.8126 L362.7332 251.1644 L362.9597 264.8412 L363.1863 261.3446 L363.4129 257.8984 L363.6394 256.7433 L363.8651 256.0956 L364.0916 253.2147 L364.3181 255.4526 L364.5447 247.2968 L364.7713 251.4057 L364.9978 252.1823 L365.2235 256.7828 L365.45 254.8883 L365.6766 250.9765 L365.9031 253.8956 L366.1288 241.3424 L366.3553 252.2685 L366.5819 214.9109 L366.8085 238.2686 L367.035 241.8301 L367.2607 228.0296 L367.4872 220.0126 L367.7138 238.3127 L367.9403 229.4035 L368.166 223.9898 L368.3926 243.3364 L368.6191 233.5211 L368.8456 237.7747 L369.0722 241.6368 L369.2979 248.5755 L369.5244 235.7498 L369.751 227.5617 L369.9775 227.4295 L370.2032 225.3471 L370.4297 216.977 L370.6563 229.9761 L370.8828 229.9908 L371.1085 217.31 L371.3351 193.6433 L371.5616 221.2514 L371.7882 212.7621 L372.0139 203.8856 L372.2404 219.019 L372.4669 199.2479 L372.6926 186.0618 L372.9192 193.602 L373.1457 199.413 L373.3723 196.1371 L373.5979 191.1205 L373.8245 185.6901 L374.0511 179.8081 L374.2767 177.6764 L374.5033 189.2408 L374.7298 180.8071 L374.9564 184.7894 L375.182 170.1429 L375.4086 197.1133 L375.6352 200.6526 L375.8608 201.3239 L376.0874 191.2363 L376.3139 199.8534 L376.5405 194.5742 L376.7661 190.428 L376.9927 172.8312 L377.2192 180.9268 L377.4449 161.6127 L377.6715 170.7919 L377.898 162.1333 L378.1237 168.6301 L378.3503 174.2998 L378.5768 159.1013 L378.8025 171.501 L379.029 155.7524 L379.2556 124.3374 L379.4812 163.1938 L379.7078 142.1432 L379.9344 148.4629 L380.16 146.8072 L380.3866 144.563 L380.6131 137.8274 L380.8388 118.4892 L381.0653 105.5703 L381.2919 145.828 L381.5176 128.2346 L381.7441 111.7443 L381.9698 118.525 L382.1964 147.8681 L382.4229 131.8087 L382.6486 138.6466 L382.8752 132.4077 L383.1017 124.4614 L383.3274 112.773 L383.5539 95.3014 L383.7796 117.3306 L384.0061 103.2615 L384.2327 125.8442 L384.4584 131.406 L384.6849 118.6881 L384.9114 131.9248 L385.1371 123.4941 L385.3637 135.8 L385.5894 115.0946 L385.8159 136.2584 L386.0425 136.7045 L386.2682 111.2757 L386.4947 119.6271 L386.7204 116.5739 L386.9469 84.9799 L387.1735 91.3443 L387.3991 118.5611 L387.6257 81.7921 L387.8514 87.7883 L388.0779 98.7844 L388.3036 90.3851 L388.5301 97.3624 L388.7567 113.708 L388.9824 60.4569 L389.209 89.3913 L389.4346 63.3714 L389.6612 67.1476 L389.8869 64.4965 L390.1134 84.4126 L390.3399 54.8459 L390.5656 74.5439 L390.7921 65.5057 L391.0179 103.422 L391.2444 70.4704 L391.4701 99.5884 L391.6966 97.2431 L391.9223 95.7475 L392.1488 106.0935 L392.3754 93.2113 L392.601 101.4527 L392.8276 88.6214 L393.0533 114.2237 L393.2799 77.2893 L393.5055 98.4083 L393.7321 62.7172 L393.9578 86.4845 L394.1843 104.0353 L394.41 82.0077 L394.6365 89.919 L394.8622 62.2251 L395.0888 63.0679 L395.3145 85.3182 L395.541 74.1473 L395.7667 51.9106 L395.9932 104.8527 L396.2189 64.8084 L396.4454 76.4073 L396.6711 68.7054 L396.8977 64.8605 L397.1234 105.0904 L397.3499 105.1693 L397.5756 65.8895 L397.8021 65.2551 L398.0278 77.0583 L398.2543 106.8936 L398.48 93.8361 L398.7066 82.299 L398.9323 101.5172 L399.1588 102.7718 L399.3845 94.0283 L399.6111 103.9149 L399.8367 84.9071 L400.0633 97.1895 L400.2889 89.1722 L400.5155 112.008 L400.7411 46.5714 L400.9677 53.2403 L401.1934 57.2511 L401.4191 48.3139 L401.6457 94.9765 L401.8713 86.5185 L402.0979 90.9267 L402.3236 95.8114 L402.5501 110.3457 L402.7758 132.6782 L403.0023 123.8211 L403.228 78.549 L403.4536 138.1238 L403.6802 98.9888 L403.9059 124.6887 L404.1325 111.3033 L404.3582 123.8478 L404.5847 110.0647 L404.8104 148.7987 L405.0361 119.3534 L405.2626 147.4564 L405.4883 159.3009 L405.7148 123.0265 L405.9405 184.2648 L406.1671 132.1533 L406.3927 150.2419 L406.6184 129.776 L406.845 169.6267 L407.0706 171.0028 L407.2972 131.2011 L407.5229 127.3144 L407.7486 165.4808 L407.9751 163.79 L408.2008 156.7007 L408.4264 133.5121 L408.653 139.3024 L408.8787 182.9513 L409.1052 161.5297 L409.3309 207.3629 L409.5565 202.319 L409.7831 186.0695 L410.0088 199.2792 L410.2354 169.4884 L410.4611 179.868 L410.6867 170.3098 L410.9133 160.9391 L411.1389 165.3921 L411.3646 191.2392 L411.5912 184.6933 L411.8168 193.7928 L412.0425 198.1938 L412.2691 181.3478 L412.4948 184.7611 L412.7204 207.4604 L412.947 199.0724 L413.1727 192.3945 L413.3983 204.338 L413.6249 184.6938 L413.8506 206.777 L414.0763 182.6441 L414.3028 217.8322 L414.5285 208.5351 L414.7542 214.0865 L414.9807 231.7822 L415.2064 206.1142 L415.4321 193.5156 L415.6586 213.4881 L415.8843 215.7986 L416.11 217.5273 L416.3365 210.8148 L416.5622 204.4929 L416.7879 221.3577 L417.0145 245.9963 L417.2401 215.8582 L417.4658 231.8016 L417.6924 233.0644 L417.918 234.1447 L418.1437 203.9763 L418.3694 235.4141 L418.5959 232.5333 L418.8216 243.8898 L419.0473 241.5061 L419.2738 242.1137 L419.4995 264.4886 L419.7252 267.4055 L419.9509 248.2144 L420.1774 247.4964 L420.4031 262.4895 L420.6288 259.2666 L420.8553 264.8882 L421.081 249.6122 L421.3067 249.8915 L421.5323 264.8908 L421.7589 232.5579 L421.9846 255.6934 L422.2103 273.5863 L422.4359 249.5213 L422.6625 271.984 L422.8882 253.6956 L423.1139 255.3226 L423.3396 250.4796 L423.5661 244.0807 L423.7918 267.8276 L424.0175 283.6012 L424.2432 256.2394 L424.4697 292.1035 L424.6954 265.5412 L424.9211 244.1426 L425.1467 271.8697 L425.3724 286.4185 L425.5989 288.1649 L425.8246 289.9763 L426.0503 259.9085 L426.276 280.6862 L426.5025 286.595 L426.7282 297.8327 L426.9539 280.0796 L427.1796 279.215 L427.4053 286.365 L427.6318 283.267 L427.8575 282.4727 L428.0832 283.6816 L428.3088 298.0232 L428.5345 288.8214 L428.7611 316.7935 L428.9868 289.5154 L429.2124 304.3989 L429.4381 288.3532 L429.6638 297.3693 L429.8904 302.5983 L430.116 310.3828 L430.3417 309.799 L430.5674 308.4346 L430.7931 287.7087 L431.0187 289.434 L431.2453 281.5275 L431.471 280.2254 L431.6967 324.912 L431.9223 299.2326 L432.148 319.0436 L432.3737 290.6157 L432.6003 317.2929 L432.826 322.7819 L433.0516 325.1543 L433.2773 330.6469 L433.503 330.028 L433.7286 316.955 L433.9552 305.1669 L434.1809 309.944 L434.4066 306.0088 L434.6323 311.1476 L434.8579 321.3625 L435.0836 313.0127 L435.3093 317.9392 L435.5349 351.7063 L435.7615 323.5656 L435.9872 326.7208 L436.2129 342.8289 L436.4385 332.8882 L436.6642 280.5083 L436.8899 316.6572 L437.1156 305.5417 L437.3412 298.23 L437.5678 279.7918 L437.7935 314.4421 L438.0192 344.6385 L438.2448 306.7992 L438.4706 312.6278 L438.6962 312.7671 L438.9219 335.4531 L439.1476 358 L439.3732 322.4107 L439.5989 323.2507 L439.8255 316.0062 L440.0511 331.3594 L440.2769 323.7317 L440.5025 345.5896 L440.7282 296.416 L440.9539 344.1521 L441.1795 330.3905 L441.4052 312.9186 L441.6309 324.4872 L441.7875 358.039" style="fill:none; fill-rule:evenodd;"
      /><path d="M441.8942 358.039 L442.0823 283.9921 L442.2804 358.039" style="fill:none; fill-rule:evenodd;"
      /><path d="M442.3741 358.039 L442.5336 333.2493 L442.7602 334.673 L442.9858 354.3459 L443.2115 340.2925 L443.4372 341.0543 L443.6629 324.6597 L443.8886 353.1425 L444.1143 353.8035 L444.3399 323.7728 L444.5656 352.5607 L444.7913 334.2458 L445.017 348.7914 L445.0689 358.039" style="fill:none; fill-rule:evenodd;"
      /><path d="M445.4006 358.039 L445.4684 344.7644 L445.694 338.2972 L445.9197 350.5604 L446.1454 348.2108 L446.3711 328.725 L446.5154 358.039" style="fill:none; fill-rule:evenodd;"
      /><path d="M446.9352 358.039 L447.0481 342.8967 L447.1793 358.039" style="fill:none; fill-rule:evenodd;"
      /><path d="M447.5307 358.039 L447.7252 306.7061 L447.9508 340.1038" style="fill:none; fill-rule:evenodd;"
      /><path d="M290.1927 349.4881 L290.4192 349.4448 L290.6467 349.401 L290.8732 349.3571 L291.1006 349.3127 L291.3272 349.2682 L291.5546 349.2233 L291.7811 349.1781 L292.0086 349.1325 L292.2351 349.0868 L292.4616 349.0408 L292.6891 348.9942 L292.9156 348.9476 L293.143 348.9004 L293.3696 348.8531 L293.597 348.8052 L293.8236 348.7572 L294.051 348.7087 L294.2775 348.66 L294.5049 348.6108 L294.7314 348.5615 L294.9589 348.5116 L295.1854 348.4616 L295.4129 348.411 L295.6394 348.3603 L295.8668 348.3089 L296.0934 348.2575 L296.3199 348.2056 L296.5474 348.1532 L296.7739 348.1006 L297.0013 348.0475 L297.2278 347.9942 L297.4552 347.9402 L297.6818 347.8861 L297.9092 347.8315 L298.1357 347.7766 L298.3623 347.7213 L298.5897 347.6654 L298.8163 347.6093 L299.0437 347.5526 L299.2702 347.4957 L299.4977 347.4381 L299.7242 347.3804 L299.9507 347.3222 L300.1782 347.2634 L300.4047 347.2044 L300.6321 347.1447 L300.8587 347.0848 L301.0852 347.0245 L301.3127 346.9635 L301.5392 346.9022 L301.7666 346.8403 L301.9932 346.7781 L302.2197 346.7155 L302.4471 346.6522 L302.6737 346.5887 L302.9011 346.5244 L303.1277 346.4598 L303.3542 346.3948 L303.5816 346.3291 L303.8082 346.2631 L304.0356 346.1963 L304.2621 346.1293 L304.4887 346.0618 L304.7161 345.9935 L304.9427 345.9249 L305.1692 345.8558 L305.3966 345.7859 L305.6231 345.7158 L305.8505 345.6448 L306.0771 345.5736 L306.3036 345.5018 L306.531 345.4292 L306.7576 345.3563 L306.9842 345.2828 L307.2115 345.2084 L307.4381 345.1338 L307.6647 345.0585 L307.8921 344.9824 L308.1187 344.906 L308.3452 344.829 L308.5726 344.751 L308.7992 344.6728 L309.0257 344.5939 L309.2531 344.5141 L309.4797 344.434 L309.7062 344.3532 L309.9337 344.2714 L310.1602 344.1893 L310.3867 344.1066 L310.6142 344.0228 L310.8407 343.9387 L311.0672 343.8539 L311.2946 343.7682 L311.5212 343.682 L311.7477 343.5951 L311.9743 343.5075 L312.2017 343.4189 L312.4283 343.3299 L312.6548 343.2401 L312.8822 343.1492 L313.1088 343.058 L313.3353 342.966 L313.5627 342.8728 L313.7892 342.7793 L314.0158 342.685 L314.2424 342.5898 L314.4698 342.4935 L314.6964 342.3968 L314.9229 342.2993 L315.1503 342.2005 L315.3769 342.1013 L315.6034 342.0013 L315.8299 341.9004 L316.0574 341.7982 L316.2839 341.6956 L316.5104 341.5921 L316.737 341.4877 L316.9644 341.382 L317.1909 341.2758 L317.4175 341.1686 L317.6441 341.0606 L317.8715 340.9512 L318.098 340.8412 L318.3246 340.7303 L318.5511 340.6185 L318.7786 340.5052 L319.0051 340.3914 L319.2316 340.2765 L319.4582 340.1606 L319.6856 340.0433 L319.9121 339.9254 L320.1387 339.8064 L320.3652 339.6864 L320.5918 339.5653 L320.8192 339.4426 L321.0458 339.3193 L321.2723 339.1949 L321.4988 339.0694 L321.7263 338.9423 L321.9528 338.8145 L322.1794 338.6855 L322.4059 338.5554 L322.6324 338.4241 L322.8599 338.291 L323.0864 338.1573 L323.313 338.0223 L323.5395 337.8861 L323.7661 337.7486 L323.9935 337.6093 L324.22 337.4693 L324.4466 337.328 L324.6731 337.1853 L324.8997 337.0413 L325.1263 336.896 L325.3536 336.7487 L325.5802 336.6006 L325.8068 336.4511 L326.0333 336.3002 L326.2598 336.1479 L326.4864 335.9941 L326.7138 335.8383 L326.9403 335.6815 L327.1669 335.5233 L327.3935 335.3635 L327.62 335.2022 L327.8465 335.0394 L328.074 334.8743 L328.3005 334.7083 L328.527 334.5406 L328.7536 334.3714 L328.9802 334.2004 L329.2067 334.0278 L329.4332 333.8535 L329.6607 333.6768 L329.8872 333.4991 L330.1137 333.3195 L330.3403 333.1382 L330.5669 332.9551 L330.7934 332.7702 L331.0199 332.5834 L331.2465 332.3948 L331.4739 332.2035 L331.7004 332.011 L331.927 331.8166 L332.1536 331.6202 L332.3801 331.4219 L332.6067 331.2215 L332.8332 331.019 L333.0597 330.8145 L333.2863 330.6079 L333.5137 330.3984 L333.7403 330.1875 L333.9668 329.9745 L334.1934 329.7592 L334.4199 329.5417 L334.6464 329.3219 L334.873 329.0999 L335.0995 328.8755 L335.3261 328.6487 L335.5526 328.4196 L335.7792 328.1881 L336.0066 327.9532 L336.2331 327.7167 L336.4597 327.4777 L336.6862 327.2362 L336.9128 326.9921 L337.1393 326.7453 L337.3659 326.4959 L337.5925 326.2439 L337.819 325.9891 L338.0455 325.7316 L338.2721 325.4713 L338.4987 325.2081 L338.7252 324.942 L338.9517 324.6731 L339.1783 324.4012 L339.4048 324.1264 L339.6314 323.8484 L339.8579 323.5675 L340.0854 323.2823 L340.3119 322.9951 L340.5384 322.7047 L340.765 322.4109 L340.9915 322.114 L341.2181 321.8137 L341.4446 321.51 L341.6712 321.2029 L341.8977 320.8924 L342.1243 320.5783 L342.3508 320.2607 L342.5774 319.9394 L342.8039 319.6145 L343.0304 319.2858 L343.257 318.9534 L343.4836 318.6172 L343.7101 318.277 L343.9366 317.933 L344.1632 317.585 L344.3898 317.2329 L344.6163 316.8767 L344.8428 316.5164 L345.0694 316.1518 L345.296 315.783 L345.5225 315.4099 L345.749 315.0323 L345.9756 314.6503 L346.2021 314.2637 L346.4287 313.8726 L346.6552 313.4768 L346.8818 313.0763 L347.1083 312.671 L347.3349 312.2608 L347.5614 311.8457 L347.7871 311.4272 L348.0136 311.0021 L348.2402 310.5718 L348.4667 310.1363 L348.6933 309.6954 L348.9198 309.2493 L349.1464 308.7976 L349.3729 308.3405 L349.5995 307.8777 L349.826 307.4092 L350.0526 306.935 L350.2791 306.4549 L350.5056 305.9688 L350.7322 305.4768 L350.9588 304.9786 L351.1853 304.4742 L351.4118 303.9635 L351.6384 303.4464 L351.8641 302.9248 L352.0907 302.3947 L352.3172 301.8579 L352.5437 301.3144 L352.7703 300.7639 L352.9969 300.2065 L353.2234 299.642 L353.4499 299.0703 L353.6765 298.4914 L353.903 297.9051 L354.1296 297.3112 L354.3561 296.7098 L354.5818 296.103 L354.8083 295.486 L355.0349 294.8611 L355.2614 294.2281 L355.488 293.587 L355.7145 292.9376 L355.9411 292.2797 L356.1676 291.6133 L356.3942 290.9383 L356.6198 290.2571 L356.8464 289.5644 L357.073 288.8626 L357.2995 288.1517 L357.526 287.4315 L357.7526 286.7018 L357.9792 285.9626 L358.2057 285.2137 L358.4314 284.4578 L358.6579 283.6891 L358.8845 282.9103 L359.111 282.1212 L359.3376 281.3217 L359.5641 280.5116 L359.7907 279.6909 L360.0164 278.8625 L360.2429 278.0199 L360.4694 277.1662 L360.696 276.3012 L360.9225 275.4248 L361.1491 274.5368 L361.3748 273.6404 L361.6013 272.7288 L361.8279 271.8051 L362.0544 270.8691 L362.281 269.9207 L362.5075 268.9598 L362.7332 267.99 L362.9597 267.0036 L363.1863 266.0042 L363.4129 264.9915 L363.6394 263.9656 L363.8651 262.9301 L364.0916 261.877 L364.3181 260.8101 L364.5447 259.7292 L364.7713 258.6341 L364.9978 257.5247 L365.2235 256.4052 L365.45 255.2667 L365.6766 254.1135 L365.9031 252.9453 L366.1288 251.7666 L366.3553 250.5681 L366.5819 249.3543 L366.8085 248.1249 L367.035 246.8798 L367.2607 245.6237 L367.4872 244.3468 L367.7138 243.0539 L367.9403 241.7447 L368.166 240.4242 L368.3926 239.0822 L368.6191 237.7236 L368.8456 236.3483 L369.0722 234.9561 L369.2979 233.5524 L369.5244 232.1264 L369.751 230.6832 L369.9775 229.2228 L370.2032 227.7509 L370.4297 226.256 L370.6563 224.7437 L370.8828 223.214 L371.1085 221.6728 L371.3351 220.1082 L371.5616 218.526 L371.7882 216.9264 L372.0139 215.3156 L372.2404 213.6811 L372.4669 212.0291 L372.6926 210.3663 L372.9192 208.6797 L373.1457 206.976 L373.3723 205.2551 L373.5979 203.524 L373.8245 201.7693 L374.0511 199.998 L374.2767 198.2171 L374.5033 196.413 L374.7298 194.5928 L374.9564 192.7568 L375.182 190.9123 L375.4086 189.0455 L375.6352 187.1638 L375.8608 185.2747 L376.0874 183.3641 L376.3139 181.4398 L376.5405 179.502 L376.7661 177.5588 L376.9927 175.5957 L377.2192 173.6207 L377.4449 171.6419 L377.6715 169.6448 L377.898 167.6376 L378.1237 165.6286 L378.3503 163.6032 L378.5768 161.5697 L378.8025 159.5368 L379.029 157.4895 L379.2556 155.4367 L379.4812 153.387 L379.7078 151.3257 L379.9344 149.2615 L380.16 147.2033 L380.3866 145.1365 L380.6131 143.0699 L380.8388 141.0126 L381.0653 138.95 L381.2919 136.8912 L381.5176 134.8452 L381.7441 132.7976 L381.9698 130.7654 L382.1964 128.7343 L382.4229 126.7135 L382.6486 124.7121 L382.8752 122.7161 L383.1017 120.7349 L383.3274 118.7773 L383.5539 116.8298 L383.7796 114.909 L384.0061 113.0016 L384.2327 111.1167 L384.4584 109.2629 L384.6849 107.4277 L384.9114 105.6199 L385.1371 103.8479 L385.3637 102.0997 L385.5894 100.3905 L385.8159 98.7087 L386.0425 97.0626 L386.2682 95.46 L386.4947 93.8903 L386.7204 92.367 L386.9469 90.8801 L387.1735 89.4372 L387.3991 88.045 L387.6257 86.6944 L387.8514 85.3972 L388.0779 84.1449 L388.3036 82.9486 L388.5301 81.8003 L388.7567 80.7062 L388.9824 79.6714 L389.209 78.689 L389.4346 77.7679 L389.6612 76.902 L389.8869 76.0988 L390.1134 75.3533 L390.3399 74.6694 L390.5656 74.0503 L390.7921 73.4918 L391.0179 72.9988 L391.2444 72.5682 L391.4701 72.2036 L391.6966 71.9027 L391.9223 71.6679 L392.1488 71.4978 L392.3754 71.3934 L392.601 71.3547 L392.8276 71.3814 L393.0533 71.4731 L393.2799 71.6303 L393.5055 71.8514 L393.7321 72.1376 L393.9578 72.4863 L394.1843 72.8996 L394.41 73.3735 L394.6365 73.911 L394.8622 74.5072 L395.0888 75.1657 L395.3145 75.8805 L395.541 76.656 L395.7667 77.4852 L395.9932 78.3733 L396.2189 79.3123 L396.4454 80.3082 L396.6711 81.352 L396.8977 82.4502 L397.1234 83.5933 L397.3499 84.7883 L397.5756 86.0249 L397.8021 87.3108 L398.0278 88.6349 L398.2543 90.0056 L398.48 91.411 L398.7066 92.8602 L398.9323 94.3405 L399.1588 95.8618 L399.3845 97.4108 L399.6111 98.9978 L399.8367 100.609 L400.0633 102.2553 L400.2889 103.9224 L400.5155 105.6217 L400.7411 107.3385 L400.9677 109.0845 L401.1934 110.8447 L401.4191 112.6245 L401.6457 114.4293 L401.8713 116.2437 L402.0979 118.0804 L402.3236 119.9239 L402.5501 121.7869 L402.7758 123.654 L403.0023 125.5381 L403.228 127.4236 L403.4536 129.3164 L403.6802 131.2227 L403.9059 133.1268 L404.1325 135.0421 L404.3582 136.9529 L404.5847 138.8728 L404.8104 140.7862 L405.0361 142.6994 L405.2626 144.6188 L405.4883 146.5289 L405.7148 148.4434 L405.9405 150.3468 L406.1671 152.2531 L406.3927 154.1468 L406.6184 156.0345 L406.845 157.9229 L407.0706 159.7966 L407.2972 161.6696 L407.5229 163.5268 L407.7486 165.375 L407.9751 167.2206 L408.2008 169.0491 L408.4264 170.8669 L408.653 172.6807 L408.8787 174.476 L409.1052 176.2664 L409.3309 178.0376 L409.5565 179.7964 L409.7831 181.549 L410.0088 183.2817 L410.2354 185.0076 L410.4611 186.7132 L410.6867 188.4049 L410.9133 190.089 L411.1389 191.7523 L411.3646 193.4012 L411.5912 195.0417 L411.8168 196.6612 L412.0425 198.2658 L412.2691 199.8616 L412.4948 201.4361 L412.7204 202.9956 L412.947 204.5458 L413.1727 206.0748 L413.3983 207.5885 L413.6249 209.0927 L413.8506 210.5758 L414.0763 212.0436 L414.3028 213.5016 L414.5285 214.9388 L414.7542 216.3607 L414.9807 217.7728 L415.2064 219.1643 L415.4321 220.5407 L415.6586 221.9072 L415.8843 223.2534 L416.11 224.5848 L416.3365 225.9063 L416.5622 227.2079 L416.7879 228.4949 L417.0145 229.7721 L417.2401 231.0299 L417.4658 232.2734 L417.6924 233.5072 L417.918 234.7221 L418.1437 235.9229 L418.3694 237.1098 L418.5959 238.2872 L418.8216 239.4465 L419.0473 240.5921 L419.2738 241.7286 L419.4995 242.8474 L419.7252 243.9529 L419.9509 245.0453 L420.1774 246.1289 L420.4031 247.1954 L420.6288 248.2493 L420.8553 249.2945 L421.081 250.3233 L421.3067 251.3398 L421.5323 252.3441 L421.7589 253.3401 L421.9846 254.3204 L422.2103 255.289 L422.4359 256.2458 L422.6625 257.1949 L422.8882 258.1288 L423.1139 259.0515 L423.3396 259.9632 L423.5661 260.8673 L423.7918 261.757 L424.0175 262.6361 L424.2432 263.5046 L424.4697 264.3659 L424.6954 265.2136 L424.9211 266.0511 L425.1467 266.8785 L425.3724 267.696 L425.5989 268.5068 L425.8246 269.3047 L426.0503 270.0931 L426.276 270.8721 L426.5025 271.6447 L426.7282 272.4051 L426.9539 273.1564 L427.1796 273.8988 L427.4053 274.6323 L427.6318 275.3599 L427.8575 276.076 L428.0832 276.7837 L428.3088 277.4829 L428.5345 278.174 L428.7611 278.8594 L428.9868 279.5341 L429.2124 280.2009 L429.4381 280.8598 L429.6638 281.511 L429.8904 282.1571 L430.116 282.7931 L430.3417 283.4216 L430.5674 284.0429 L430.7931 284.6569 L431.0187 285.2637 L431.2453 285.8658 L431.471 286.4587 L431.6967 287.0447 L431.9223 287.6239 L432.148 288.1965 L432.3737 288.7625 L432.6003 289.3241 L432.826 289.8772 L433.0516 290.4239 L433.2773 290.9644 L433.503 291.4988 L433.7286 292.0271 L433.9552 292.5514 L434.1809 293.0678 L434.4066 293.5783 L434.6323 294.0832 L434.8579 294.5823 L435.0836 295.0759 L435.3093 295.5639 L435.5349 296.0465 L435.7615 296.5256 L435.9872 296.9975 L436.2129 297.4642 L436.4385 297.9257 L436.6642 298.3822 L436.8899 298.8336 L437.1156 299.2801 L437.3412 299.7217 L437.5678 300.1601 L437.7935 300.5921 L438.0192 301.0194 L438.2448 301.4421 L438.4706 301.8602 L438.6962 302.2738 L438.9219 302.683 L439.1476 303.0877 L439.3732 303.4881 L439.5989 303.8843 L439.8255 304.2777 L440.0511 304.6655 L440.2769 305.0491 L440.5025 305.4287 L440.7282 305.8043 L440.9539 306.1759 L441.1795 306.5437 L441.4052 306.9076 L441.6309 307.2676 L441.8566 307.624 L442.0823 307.9766 L442.3079 308.3256 L442.5336 308.671 L442.7602 309.0142 L442.9858 309.3525 L443.2115 309.6873 L443.4372 310.0187 L443.6629 310.3468 L443.8886 310.6715 L444.1143 310.9929 L444.3399 311.3111 L444.5656 311.626 L444.7913 311.9378 L445.017 312.2465 L445.2427 312.552 L445.4684 312.8545 L445.694 313.154 L445.9197 313.4506 L446.1454 313.7442 L446.3711 314.0349 L446.5968 314.3227 L446.8224 314.6077 L447.0481 314.8899 L447.2738 315.1693 L447.4995 315.4461 L447.7252 315.7201 L447.9508 315.9915" style="fill:none; fill-rule:evenodd; stroke:fuchsia;"
      /><path d="M507.0517 282.0189 L507.0278 281.9525 L506.1052 281.5164 L505.2975 281.9655 L504.3741 279.749 L503.5656 279.3798 L502.6412 278.1992 L501.832 277.5136 L500.9067 275.9792 L500.0967 275.7193 L499.1706 274.1276 L498.3598 272.6488 L497.4327 271.2016 L496.6211 270.9985 L495.6932 269.7839 L494.8809 268.9964 L493.952 267.2607 L493.1389 265.8841 L492.2091 264.5706 L491.3952 263.6108 L490.4646 262.054 L489.65 260.9702 L488.7184 258.7163 L487.903 258.7482 L487.0872 255.8883 L486.1544 256.357 L485.3378 252.0874 L484.4041 253.7417 L483.5868 251.9541 L482.6523 250.1091 L481.8341 249.2941 L481.0157 246.3178 L480.0798 242.6823 L479.2606 244.9491 L478.3239 241.4873 L477.5039 238.3694 L476.5663 238.8583 L475.7456 238.3193 L474.9245 235.2652 L473.9856 233.0783 L473.1637 228.7126 L472.224 227.9646 L471.4014 223.7667 L470.5784 226.3662 L469.6374 220.9745 L468.8137 220.6674 L467.9897 217.9733 L467.0474 216.162 L466.2226 216.7421 L465.2795 213.405 L464.4539 215.6873 L463.628 210.3499 L462.6836 209.3335 L461.857 206.9653 L461.0299 202.8229 L460.0844 202.3705 L459.2566 198.3637 L458.4284 196.8629 L457.4816 193.9689 L456.6528 194.4712 L455.8235 190.9964 L454.8755 185.4651 L454.0455 185.8357 L453.2153 184.0186 L452.2659 182.9898 L451.4349 179.8619 L450.6036 176.2896 L449.653 172.9947 L448.821 168.6284 L447.9885 170.4072 L447.1557 166.9306 L446.2036 163.3614 L445.37 161.1924 L444.5362 158.486 L443.5829 158.1411 L442.7483 154.5023 L441.9134 152.1287 L441.0781 150.9479 L440.1231 147.5392 L439.2871 147.5025 L438.4508 141.996 L437.6142 140.1328 L436.6576 135.299 L435.8203 137.5037 L434.9825 137.6859 L434.1445 133.3044 L433.1864 134.9 L432.3476 124.4629 L431.5085 125.0586 L430.6691 121.566 L429.7094 116.2846 L428.8692 111.8856 L428.0288 110.665 L427.188 115.478 L426.2267 109.8267 L425.3852 109.4138 L424.5433 109.1498 L423.7012 107.5624 L422.8587 99.6685 L421.8954 108.5514 L421.0522 96.0919 L420.2087 93.7 L419.3648 95.9733 L418.5206 90.2357 L417.5555 81.8915 L416.7106 91.9699 L415.8654 90.1633 L415.0199 80.2638 L414.174 77.5934 L413.2069 78.6675 L412.3604 75.5993 L411.5135 80.306 L410.6663 69.2747 L409.8188 68.105 L408.9709 66.1567 L408.0015 53.667 L407.153 64.6987 L406.3041 55.0762 L405.4549 63.4836 L404.6054 60.4057 L403.7556 57.5244 L402.7839 64.904 L401.9334 65.1622 L401.0826 54.1877 L400.2315 53.464 L399.38 56.6176 L398.5282 58.109 L397.6761 49.6846 L396.8237 55.6932 L395.8491 53.3909 L394.996 46.5714 L394.1426 54.2224 L393.2889 60.454 L392.4348 52.878 L391.5804 51.2004 L390.7258 50.3156 L389.8708 53.8597 L388.8932 56.5868 L388.0376 53.0131 L387.1816 58.1673 L386.3253 53.38 L385.4687 60.7965 L384.6118 54.7798 L383.7546 60.5328 L382.8971 53.8759 L382.0392 65.972 L381.1811 62.4674 L380.3226 61.3517 L379.4639 63.1192 L378.482 63.9592 L377.6226 64.6275 L376.7628 63.7268 L375.9028 69.2817 L375.0424 68.6719 L374.1818 68.5884 L373.3208 73.4247 L372.4595 76.5053 L371.598 77.7454 L370.7361 78.9864 L369.8739 79.5253 L369.0114 85.9355 L368.1486 86.4036 L367.2855 89.9076 L366.4221 90.6329 L365.5584 93.765 L364.6944 93.8753 L363.8301 97.8424 L362.9655 101.5299 L362.1006 102.0765 L361.2353 105.9317 L360.2462 107.6586 L359.3803 110.7378 L358.5142 113.5495 L357.6477 114.9681 L356.7809 120.9348 L355.9139 122.7584 L355.0466 127.3523 L354.1789 127.1696 L353.311 131.2021 L352.4427 134.3048 L351.5742 136.2617 L350.7054 140.8015 L349.8363 144.0476 L348.9668 146.923 L348.0971 149.5201 L347.2271 153.5596 L346.4812 155.8102 L345.6107 157.8316 L344.7398 162.6002 L343.8687 164.9399 L342.9972 167.6746 L342.1255 171.5935 L341.2535 175.304 L340.3812 178.6619 L339.5086 181.0442 L338.6358 183.7429 L337.7626 187.6376 L336.8891 190.6494 L336.0154 191.6763 L335.1414 196.8697 L334.267 200.1777 L333.3924 203.0917 L332.5175 205.8741 L331.6423 208.8176 L330.7669 212.0136 L329.8911 214.4069 L329.0151 218.4692 L328.1388 220.4077 L327.2621 223.2329 L326.5105 225.5756 L325.6334 228.3548 L324.756 231.925 L323.8783 233.8203 L323.0003 236.0005 L322.122 238.4908 L321.2434 241.5603 L320.3646 243.9551 L319.4855 246.2737 L318.6061 249.204 L317.7265 251.0451 L316.8465 253.6821 L316.092 255.5693 L315.2116 257.5684 L314.3308 260.0959 L313.4498 261.6649 L312.5685 264.5341 L311.6869 266.2072 L310.805 268.3675 L309.9229 270.3348 L309.0405 271.4497 L308.2839 273.5627 L307.401 274.6747 L306.5179 277.4153 L305.6344 278.06 L304.7506 280.0526 L303.8666 281.5054 L302.9823 282.9763 L302.0977 284.9008 L301.3394 286.182 L300.4543 287.3083 L299.5689 288.5314 L298.6833 290.1282 L297.7974 291.2165 L296.9113 292.8391 L296.0249 293.6737 L295.2649 294.6321 L294.3779 295.7863 L293.4908 296.7464 L292.6033 298.0335 L291.7156 299.1086 L290.8276 299.928 L289.9393 300.9084 L289.1778 301.6394 L288.289 303.3279 L287.4 303.7995 L286.5107 304.4896 L285.6212 304.7653 L284.7314 305.9535 L283.9684 306.4285 L283.0782 307.179 L282.1876 307.8694 L281.2968 308.2255 L280.4056 309.5248 L279.6417 309.4694 L278.7501 310.0393 L277.8583 310.7218 L276.9662 311.2092 L276.0738 311.8661 L275.1812 312.1002 L274.4159 312.4154 L273.5228 312.8424 L272.6294 313.3314 L271.7358 313.7823 L270.8419 313.9851 L270.0755 314.5426 L269.1812 314.8132 L268.2866 315.0702 L267.3917 315.2614 L266.6245 315.58 L265.7292 316.0064 L264.8336 316.1704 L263.9377 316.2812 L263.0416 316.446 L262.2733 316.8111 L261.3768 316.7232 L260.4799 316.9042 L259.5829 317.0295 L258.8137 316.8924 L257.9162 317.0664 L257.0184 317.16 L256.1203 317.1003 L255.222 317.1512 L254.4518 317.0731 L253.5531 317.0756 L252.6541 317.2888 L251.7548 317.1907 L250.9838 316.9271 L250.0841 317.0148 L249.1841 316.7725 L248.2839 316.5793 L247.5121 316.4062 L246.6115 316.3039 L245.7105 316.0358 L244.8093 315.7687 L244.0367 315.5967 L243.1351 315.2767 L242.2332 314.8594 L241.3311 314.4299 L240.5577 314.2492 L239.6552 313.907 L238.7523 313.2843 L237.9783 312.9676 L237.075 312.5208 L236.1716 311.8759 L235.2678 311.5834 L234.493 310.9674 L233.5888 310.3641 L232.6844 309.8508 L231.7797 308.8877 L231.0041 308.4764 L230.099 307.7362 L229.1936 307.3153 L228.4174 306.3558 L227.5117 305.51 L226.6056 304.496 L225.8289 304.0219 L224.9224 303.084 L224.0157 302.1569 L223.1088 301.0686 L222.3312 300.1789 L221.4239 299.2531 L220.5163 297.9871 L219.7381 297.0309 L218.8301 295.9491 L217.9218 294.6441 L217.1432 293.802 L216.2345 292.6747 L215.3255 291.5209 L214.5462 290.1502 L213.6369 288.8803 L212.7273 287.7604 L211.8175 286.1389 L211.0375 285.0251 L210.1272 283.4286 L209.2167 282.2867 L208.4361 281.4797 L207.5253 279.766 L206.6142 278.1414 L205.833 276.9563 L204.9214 275.5874 L204.0097 273.8252 L203.228 272.857 L202.3158 271.0533 L201.4033 269.5505 L200.6211 268.2737 L199.7083 266.6121 L198.7952 265.1085 L198.0125 263.7901 L197.0989 262.2989 L196.3158 260.7659 L195.4019 259.4118 L194.4878 257.7936 L193.7041 256.3236 L192.7896 254.8595 L191.8748 253.483 L191.0907 251.9135 L190.1755 250.5127 L189.2601 249.1489 L188.4754 248.2567 L187.5596 246.8294 L186.6436 245.5679 L185.8583 244.3862 L184.9418 243.309 L184.1562 242.6205 L183.2394 241.5318 L182.3224 240.5558 L181.5362 239.6281 L180.6188 238.8724 L179.7012 238.2183 L178.9145 237.6811 L177.9965 237.401 L177.2094 236.9745 L176.291 236.6288 L175.3723 236.4353 L174.5848 236.4062 L173.6658 236.6551 L172.8779 236.9642 L171.9585 237.0708 L171.0388 237.5602 L170.2504 238.1917 L169.3304 238.8973 L168.5416 239.6124 L167.6212 240.4934 L166.7006 241.4328 L165.9113 242.6895 L164.9903 244.0082 L164.2007 245.2103 L163.2793 246.4003 L162.3577 247.7453 L161.5677 249.2404 L160.6457 250.9435 L159.8552 252.0105 L158.9329 253.5542 L158.0103 254.8867 L157.2194 256.2234 L156.2964 257.6196 L155.5052 258.807 L154.5819 259.9987 L153.6584 261.3638 L152.8666 262.0728 L151.9427 263.2517 L151.1506 264.1262 L150.2264 264.9906 L149.434 265.6701 L148.5093 266.4005 L147.5845 267.0481 L146.7916 267.6787 L145.8664 268.0818 L145.0732 268.6215 L144.1476 269.0158 L143.3541 269.2111 L142.4282 269.5334 L141.6344 269.7155 L140.708 270.0587 L139.7815 270.1491 L138.9872 270.2293 L138.0603 270.4759 L137.2657 270.8087 L136.3385 270.842 L135.5436 270.8658 L134.616 270.8499 L133.8208 270.8618 L132.8928 270.907 L131.9647 270.7784 L131.169 270.7095 L130.2405 270.7899 L129.4445 270.789 L128.5156 270.6438 L127.7193 270.6339 L126.7901 270.4923 L125.9935 270.3917 L125.0639 270.2675 L124.267 270.1786 L123.3371 270.0606 L122.5399 269.8779 L121.6097 269.7828 L120.6792 269.6556 L119.8816 269.5381 L118.9508 269.3426 L118.1528 269.2858 L117.2217 268.9711 L116.4234 268.9437 L115.492 268.782 L114.6934 268.5134 L113.7616 268.4437 L112.9628 268.2575 L112.0306 268.028 L111.2315 267.9311 L110.299 267.6634 L109.4995 267.4676 L108.5667 267.3356 L107.767 267.0988 L106.8338 266.8879 L106.0338 266.708 L105.1003 266.4557 L104.3 266.3909 L103.3662 266.1578 L102.5657 266.109 L101.6315 265.7 L100.8307 265.6388 L99.8962 265.438 L99.095 265.3117 L98.1602 264.9502 L97.3588 264.7401 L96.4237 264.6468 L95.622 264.4384 L94.6865 264.1819 L93.8845 264.0126 L92.9487 263.8331 L92.1465 263.5977 L91.2104 263.4073 L90.4078 263.2302 L89.4714 263.0514 L88.6686 262.91 L87.7319 262.6185 L86.9288 262.4525 L85.9917 262.2222 L85.1884 261.907 L84.251 261.7329 L83.4474 261.5272 L82.5097 261.3225 L81.7058 261.2238 L80.7678 260.9358 L79.9637 260.6458 L79.0253 260.3621 L78.2209 260.2648 L77.2823 259.9613 L76.4776 259.8232 L75.5387 259.5649 L74.7337 259.3807 L73.9287 259.1452 L72.9893 258.9438" style="fill:none; fill-rule:evenodd; stroke:black;"
    /></g
    ><g style="stroke-linecap:butt; text-rendering:geometricPrecision; color-rendering:optimizeQuality; image-rendering:optimizeQuality; stroke-linejoin:bevel; stroke-dasharray:2,2; color-interpolation:linearRGB; stroke-width:2.6667; stroke-miterlimit:1;"
    ><line y2="30.961" style="fill:none;" x1="398.5" x2="398.5" y1="358.039"
    /></g
    ><g style="fill:white; text-rendering:optimizeSpeed; color-rendering:optimizeSpeed; image-rendering:optimizeSpeed; shape-rendering:crispEdges; color-interpolation:sRGB; stroke:white;"
    ><path style="stroke:none;" d="M86 150 L86 44 L265 44 L265 150 Z"
    /></g
    ><g transform="translate(133,58.5687)" style="font-size:19px; text-rendering:geometricPrecision; color-rendering:optimizeQuality; image-rendering:optimizeQuality; font-family:sans-serif; color-interpolation:linearRGB;"
    ><text x="0" xml:space="preserve" y="7.5" style="stroke:none;"
      >Nanorod single</text
    ></g
    ><g style="stroke-linecap:butt; fill:aqua; text-rendering:geometricPrecision; color-rendering:optimizeQuality; image-rendering:optimizeQuality; stroke-linejoin:round; color-interpolation:linearRGB; stroke:aqua; stroke-width:2.6667;"
    ><line y2="58.5687" style="fill:none;" x1="90" x2="130" y1="58.5687"
    /></g
    ><g transform="translate(133,84.1896)" style="font-size:19px; text-rendering:geometricPrecision; color-rendering:optimizeQuality; image-rendering:optimizeQuality; font-family:sans-serif; color-interpolation:linearRGB;"
    ><text x="0" xml:space="preserve" y="7.5" style="stroke:none;"
      >Lorentzian fit</text
    ></g
    ><g style="stroke-linecap:butt; fill:fuchsia; text-rendering:geometricPrecision; color-rendering:optimizeQuality; image-rendering:optimizeQuality; stroke-linejoin:round; color-interpolation:linearRGB; stroke:fuchsia; stroke-width:2.6667;"
    ><line y2="84.1896" style="fill:none;" x1="90" x2="130" y1="84.1896"
    /></g
    ><g transform="translate(133,109.8104)" style="font-size:19px; text-rendering:geometricPrecision; color-rendering:optimizeQuality; image-rendering:optimizeQuality; font-family:sans-serif; color-interpolation:linearRGB;"
    ><text x="0" xml:space="preserve" y="7.5" style="stroke:none;"
      >Nanorod bulk</text
    ></g
    ><g style="stroke-linecap:butt; text-rendering:geometricPrecision; color-rendering:optimizeQuality; image-rendering:optimizeQuality; stroke-linejoin:round; color-interpolation:linearRGB; stroke-width:2.6667;"
    ><line y2="109.8104" style="fill:none;" x1="90" x2="130" y1="109.8104"
    /></g
    ><g transform="translate(133,135.4313)" style="font-size:19px; text-rendering:geometricPrecision; color-rendering:optimizeQuality; image-rendering:optimizeQuality; font-family:sans-serif; color-interpolation:linearRGB;"
    ><text x="0" xml:space="preserve" y="7.5" style="stroke:none;"
      >Laser</text
    ></g
    ><g style="stroke-linecap:butt; text-rendering:geometricPrecision; color-rendering:optimizeQuality; image-rendering:optimizeQuality; stroke-linejoin:bevel; stroke-dasharray:2,2; color-interpolation:linearRGB; stroke-width:2.6667; stroke-miterlimit:1;"
    ><line y2="135.4313" style="fill:none;" x1="90" x2="130" y1="135.4313"
    /></g
    ><g style="stroke-linecap:butt; fill:rgb(38,38,38); text-rendering:geometricPrecision; color-rendering:optimizeQuality; image-rendering:optimizeQuality; color-interpolation:linearRGB; stroke:rgb(38,38,38); stroke-width:2.6667;"
    ><path d="M86 150 L86 44 L265 44 L265 150 Z" style="fill:none; fill-rule:evenodd;"
    /></g
  ></g
></svg
>
